[
  {
    "url": "https://api.github.com/repos/prometheus/jmx_exporter/releases/5817508",
    "assets_url": "https://api.github.com/repos/prometheus/jmx_exporter/releases/5817508/assets",
    "upload_url": "https://uploads.github.com/repos/prometheus/jmx_exporter/releases/5817508/assets{?name,label}",
    "html_url": "https://github.com/prometheus/jmx_exporter/releases/tag/parent-0.9",
    "id": 5817508,
    "tag_name": "parent-0.9",
    "target_commitish": "master",
    "name": "0.9 / 2017-03-21",
    "draft": false,
    "author": {
      "login": "brian-brazil",
      "id": 7115638,
      "avatar_url": "https://avatars3.githubusercontent.com/u/7115638?v=3",
      "gravatar_id": "",
      "url": "https://api.github.com/users/brian-brazil",
      "html_url": "https://github.com/brian-brazil",
      "followers_url": "https://api.github.com/users/brian-brazil/followers",
      "following_url": "https://api.github.com/users/brian-brazil/following{/other_user}",
      "gists_url": "https://api.github.com/users/brian-brazil/gists{/gist_id}",
      "starred_url": "https://api.github.com/users/brian-brazil/starred{/owner}{/repo}",
      "subscriptions_url": "https://api.github.com/users/brian-brazil/subscriptions",
      "organizations_url": "https://api.github.com/users/brian-brazil/orgs",
      "repos_url": "https://api.github.com/users/brian-brazil/repos",
      "events_url": "https://api.github.com/users/brian-brazil/events{/privacy}",
      "received_events_url": "https://api.github.com/users/brian-brazil/received_events",
      "type": "User",
      "site_admin": false
    },
    "prerelease": false,
    "created_at": "2017-03-21T13:25:12Z",
    "published_at": "2017-03-21T13:44:37Z",
    "assets": [

    ],
    "tarball_url": "https://api.github.com/repos/prometheus/jmx_exporter/tarball/parent-0.9",
    "zipball_url": "https://api.github.com/repos/prometheus/jmx_exporter/zipball/parent-0.9",
    "body": "[ENCHANCEMENT] Update all poms to client_java 0.0.21\r\n[BUGFIX] Limit number of jetty acceptors in the agent, to prevent issues on machines with large numbers of cpus"
  },
  {
    "url": "https://api.github.com/repos/prometheus/jmx_exporter/releases/5563900",
    "assets_url": "https://api.github.com/repos/prometheus/jmx_exporter/releases/5563900/assets",
    "upload_url": "https://uploads.github.com/repos/prometheus/jmx_exporter/releases/5563900/assets{?name,label}",
    "html_url": "https://github.com/prometheus/jmx_exporter/releases/tag/parent-0.8",
    "id": 5563900,
    "tag_name": "parent-0.8",
    "target_commitish": "master",
    "name": "0.8 / 2017-02-24",
    "draft": false,
    "author": {
      "login": "brian-brazil",
      "id": 7115638,
      "avatar_url": "https://avatars3.githubusercontent.com/u/7115638?v=3",
      "gravatar_id": "",
      "url": "https://api.github.com/users/brian-brazil",
      "html_url": "https://github.com/brian-brazil",
      "followers_url": "https://api.github.com/users/brian-brazil/followers",
      "following_url": "https://api.github.com/users/brian-brazil/following{/other_user}",
      "gists_url": "https://api.github.com/users/brian-brazil/gists{/gist_id}",
      "starred_url": "https://api.github.com/users/brian-brazil/starred{/owner}{/repo}",
      "subscriptions_url": "https://api.github.com/users/brian-brazil/subscriptions",
      "organizations_url": "https://api.github.com/users/brian-brazil/orgs",
      "repos_url": "https://api.github.com/users/brian-brazil/repos",
      "events_url": "https://api.github.com/users/brian-brazil/events{/privacy}",
      "received_events_url": "https://api.github.com/users/brian-brazil/received_events",
      "type": "User",
      "site_admin": false
    },
    "prerelease": false,
    "created_at": "2017-02-24T15:12:08Z",
    "published_at": "2017-02-24T15:26:19Z",
    "assets": [

    ],
    "tarball_url": "https://api.github.com/repos/prometheus/jmx_exporter/tarball/parent-0.8",
    "zipball_url": "https://api.github.com/repos/prometheus/jmx_exporter/zipball/parent-0.8",
    "body": "[FEATURE] SSL support for JMX\n[FEATURE] Java agent now has a limit on threads and queue size\n[ENHANCEMENT] Using the latest 0.0.21 client_java\n[BUGFIX] valueFactor is now a double\n"
  },
  {
    "url": "https://api.github.com/repos/prometheus/jmx_exporter/releases/4498078",
    "assets_url": "https://api.github.com/repos/prometheus/jmx_exporter/releases/4498078/assets",
    "upload_url": "https://uploads.github.com/repos/prometheus/jmx_exporter/releases/4498078/assets{?name,label}",
    "html_url": "https://github.com/prometheus/jmx_exporter/releases/tag/parent-0.7",
    "id": 4498078,
    "tag_name": "parent-0.7",
    "target_commitish": "master",
    "name": "0.7 / 2016-10-27",
    "draft": false,
    "author": {
      "login": "brian-brazil",
      "id": 7115638,
      "avatar_url": "https://avatars3.githubusercontent.com/u/7115638?v=3",
      "gravatar_id": "",
      "url": "https://api.github.com/users/brian-brazil",
      "html_url": "https://github.com/brian-brazil",
      "followers_url": "https://api.github.com/users/brian-brazil/followers",
      "following_url": "https://api.github.com/users/brian-brazil/following{/other_user}",
      "gists_url": "https://api.github.com/users/brian-brazil/gists{/gist_id}",
      "starred_url": "https://api.github.com/users/brian-brazil/starred{/owner}{/repo}",
      "subscriptions_url": "https://api.github.com/users/brian-brazil/subscriptions",
      "organizations_url": "https://api.github.com/users/brian-brazil/orgs",
      "repos_url": "https://api.github.com/users/brian-brazil/repos",
      "events_url": "https://api.github.com/users/brian-brazil/events{/privacy}",
      "received_events_url": "https://api.github.com/users/brian-brazil/received_events",
      "type": "User",
      "site_admin": false
    },
    "prerelease": false,
    "created_at": "2016-10-27T09:24:23Z",
    "published_at": "2016-10-27T09:29:50Z",
    "assets": [

    ],
    "tarball_url": "https://api.github.com/repos/prometheus/jmx_exporter/tarball/parent-0.7",
    "zipball_url": "https://api.github.com/repos/prometheus/jmx_exporter/zipball/parent-0.7",
    "body": "[FEATURE] Auto-reload config on file change\n[FEATURE] Allow extracting value via the regex\n[FEATURE] Allow multiplying value by a factor\n[FEATURE] Allow Java agent to bind to a specific IP\n[FEATURE] Convert booleans to 0/1\n[BUGFIX] Don't double shade java agent\n[BUGFIX] Use queryMBeans instead of queryNames, works around a weird issue reported in jBoss\n"
  },
  {
    "url": "https://api.github.com/repos/prometheus/jmx_exporter/releases/2555583",
    "assets_url": "https://api.github.com/repos/prometheus/jmx_exporter/releases/2555583/assets",
    "upload_url": "https://uploads.github.com/repos/prometheus/jmx_exporter/releases/2555583/assets{?name,label}",
    "html_url": "https://github.com/prometheus/jmx_exporter/releases/tag/parent-0.6",
    "id": 2555583,
    "tag_name": "parent-0.6",
    "target_commitish": "master",
    "name": "0.6 / 2016-02-04",
    "draft": false,
    "author": {
      "login": "brian-brazil",
      "id": 7115638,
      "avatar_url": "https://avatars3.githubusercontent.com/u/7115638?v=3",
      "gravatar_id": "",
      "url": "https://api.github.com/users/brian-brazil",
      "html_url": "https://github.com/brian-brazil",
      "followers_url": "https://api.github.com/users/brian-brazil/followers",
      "following_url": "https://api.github.com/users/brian-brazil/following{/other_user}",
      "gists_url": "https://api.github.com/users/brian-brazil/gists{/gist_id}",
      "starred_url": "https://api.github.com/users/brian-brazil/starred{/owner}{/repo}",
      "subscriptions_url": "https://api.github.com/users/brian-brazil/subscriptions",
      "organizations_url": "https://api.github.com/users/brian-brazil/orgs",
      "repos_url": "https://api.github.com/users/brian-brazil/repos",
      "events_url": "https://api.github.com/users/brian-brazil/events{/privacy}",
      "received_events_url": "https://api.github.com/users/brian-brazil/received_events",
      "type": "User",
      "site_admin": false
    },
    "prerelease": false,
    "created_at": "2016-02-04T20:13:21Z",
    "published_at": "2016-02-04T20:22:53Z",
    "assets": [

    ],
    "tarball_url": "https://api.github.com/repos/prometheus/jmx_exporter/tarball/parent-0.6",
    "zipball_url": "https://api.github.com/repos/prometheus/jmx_exporter/zipball/parent-0.6",
    "body": "[FEATURE] Authentication support\n[FEATURE] Arbitrary JMX url support\n[ENHANCEMENT] Use newer version of client_java\n[ENHANCEMENT] Improve reporting of exceptions\n"
  },
  {
    "url": "https://api.github.com/repos/prometheus/jmx_exporter/releases/2001324",
    "assets_url": "https://api.github.com/repos/prometheus/jmx_exporter/releases/2001324/assets",
    "upload_url": "https://uploads.github.com/repos/prometheus/jmx_exporter/releases/2001324/assets{?name,label}",
    "html_url": "https://github.com/prometheus/jmx_exporter/releases/tag/parent-0.5",
    "id": 2001324,
    "tag_name": "parent-0.5",
    "target_commitish": "master",
    "name": "0.5 / 2015-10-22",
    "draft": false,
    "author": {
      "login": "brian-brazil",
      "id": 7115638,
      "avatar_url": "https://avatars3.githubusercontent.com/u/7115638?v=3",
      "gravatar_id": "",
      "url": "https://api.github.com/users/brian-brazil",
      "html_url": "https://github.com/brian-brazil",
      "followers_url": "https://api.github.com/users/brian-brazil/followers",
      "following_url": "https://api.github.com/users/brian-brazil/following{/other_user}",
      "gists_url": "https://api.github.com/users/brian-brazil/gists{/gist_id}",
      "starred_url": "https://api.github.com/users/brian-brazil/starred{/owner}{/repo}",
      "subscriptions_url": "https://api.github.com/users/brian-brazil/subscriptions",
      "organizations_url": "https://api.github.com/users/brian-brazil/orgs",
      "repos_url": "https://api.github.com/users/brian-brazil/repos",
      "events_url": "https://api.github.com/users/brian-brazil/events{/privacy}",
      "received_events_url": "https://api.github.com/users/brian-brazil/received_events",
      "type": "User",
      "site_admin": false
    },
    "prerelease": false,
    "created_at": "2015-10-22T09:49:36Z",
    "published_at": "2015-10-22T10:05:08Z",
    "assets": [

    ],
    "tarball_url": "https://api.github.com/repos/prometheus/jmx_exporter/tarball/parent-0.5",
    "zipball_url": "https://api.github.com/repos/prometheus/jmx_exporter/zipball/parent-0.5",
    "body": "Breaking: The config format is now YAML rather than JSON. The structure remains the same.\n\n[CHANGE] Change config format to YAML\n[ENHANCEMENT] Updated example configuration for Kafka >=0.8.2 added\n"
  },
  {
    "url": "https://api.github.com/repos/prometheus/jmx_exporter/releases/1820464",
    "assets_url": "https://api.github.com/repos/prometheus/jmx_exporter/releases/1820464/assets",
    "upload_url": "https://uploads.github.com/repos/prometheus/jmx_exporter/releases/1820464/assets{?name,label}",
    "html_url": "https://github.com/prometheus/jmx_exporter/releases/tag/parent-0.4",
    "id": 1820464,
    "tag_name": "parent-0.4",
    "target_commitish": "master",
    "name": "",
    "draft": false,
    "author": {
      "login": "brian-brazil",
      "id": 7115638,
      "avatar_url": "https://avatars3.githubusercontent.com/u/7115638?v=3",
      "gravatar_id": "",
      "url": "https://api.github.com/users/brian-brazil",
      "html_url": "https://github.com/brian-brazil",
      "followers_url": "https://api.github.com/users/brian-brazil/followers",
      "following_url": "https://api.github.com/users/brian-brazil/following{/other_user}",
      "gists_url": "https://api.github.com/users/brian-brazil/gists{/gist_id}",
      "starred_url": "https://api.github.com/users/brian-brazil/starred{/owner}{/repo}",
      "subscriptions_url": "https://api.github.com/users/brian-brazil/subscriptions",
      "organizations_url": "https://api.github.com/users/brian-brazil/orgs",
      "repos_url": "https://api.github.com/users/brian-brazil/repos",
      "events_url": "https://api.github.com/users/brian-brazil/events{/privacy}",
      "received_events_url": "https://api.github.com/users/brian-brazil/received_events",
      "type": "User",
      "site_admin": false
    },
    "prerelease": false,
    "created_at": "2015-09-16T08:34:37Z",
    "published_at": "2015-09-16T08:51:17Z",
    "assets": [

    ],
    "tarball_url": "https://api.github.com/repos/prometheus/jmx_exporter/tarball/parent-0.4",
    "zipball_url": "https://api.github.com/repos/prometheus/jmx_exporter/zipball/parent-0.4",
    "body": "[FEATURE] Added support for whitelisting/blacklisting mBeans based on objectnames\n[ENHANCEMENT] Minor performance tuning\n"
  }
]
