[
  {
    "url": "https://api.github.com/repos/grpc/grpc.github.io/releases/1764372",
    "assets_url": "https://api.github.com/repos/grpc/grpc.github.io/releases/1764372/assets",
    "upload_url": "https://uploads.github.com/repos/grpc/grpc.github.io/releases/1764372/assets{?name,label}",
    "html_url": "https://github.com/grpc/grpc.github.io/releases/tag/v0.10",
    "id": 1764372,
    "tag_name": "v0.10",
    "target_commitish": "master",
    "name": "Alpha",
    "draft": false,
    "author": {
      "login": "mugurm",
      "id": 457532,
      "avatar_url": "https://avatars1.githubusercontent.com/u/457532?v=3",
      "gravatar_id": "",
      "url": "https://api.github.com/users/mugurm",
      "html_url": "https://github.com/mugurm",
      "followers_url": "https://api.github.com/users/mugurm/followers",
      "following_url": "https://api.github.com/users/mugurm/following{/other_user}",
      "gists_url": "https://api.github.com/users/mugurm/gists{/gist_id}",
      "starred_url": "https://api.github.com/users/mugurm/starred{/owner}{/repo}",
      "subscriptions_url": "https://api.github.com/users/mugurm/subscriptions",
      "organizations_url": "https://api.github.com/users/mugurm/orgs",
      "repos_url": "https://api.github.com/users/mugurm/repos",
      "events_url": "https://api.github.com/users/mugurm/events{/privacy}",
      "received_events_url": "https://api.github.com/users/mugurm/received_events",
      "type": "User",
      "site_admin": false
    },
    "prerelease": false,
    "created_at": "2015-09-03T14:36:39Z",
    "published_at": "2015-09-03T17:02:07Z",
    "assets": [

    ],
    "tarball_url": "https://api.github.com/repos/grpc/grpc.github.io/tarball/v0.10",
    "zipball_url": "https://api.github.com/repos/grpc/grpc.github.io/zipball/v0.10",
    "body": "This release synchronizes the state of the docs to the rest of the grpc code base. Any future work will go toward the beta and later releases.\n"
  }
]
