[
  {
    "url": "https://api.github.com/repos/linkerd/linkerd-tcp/releases/6078175",
    "assets_url": "https://api.github.com/repos/linkerd/linkerd-tcp/releases/6078175/assets",
    "upload_url": "https://uploads.github.com/repos/linkerd/linkerd-tcp/releases/6078175/assets{?name,label}",
    "html_url": "https://github.com/linkerd/linkerd-tcp/releases/tag/0.0.3",
    "id": 6078175,
    "tag_name": "0.0.3",
    "target_commitish": "master",
    "name": "0.0.3",
    "draft": false,
    "author": {
      "login": "klingerf",
      "id": 9226,
      "avatar_url": "https://avatars3.githubusercontent.com/u/9226?v=3",
      "gravatar_id": "",
      "url": "https://api.github.com/users/klingerf",
      "html_url": "https://github.com/klingerf",
      "followers_url": "https://api.github.com/users/klingerf/followers",
      "following_url": "https://api.github.com/users/klingerf/following{/other_user}",
      "gists_url": "https://api.github.com/users/klingerf/gists{/gist_id}",
      "starred_url": "https://api.github.com/users/klingerf/starred{/owner}{/repo}",
      "subscriptions_url": "https://api.github.com/users/klingerf/subscriptions",
      "organizations_url": "https://api.github.com/users/klingerf/orgs",
      "repos_url": "https://api.github.com/users/klingerf/repos",
      "events_url": "https://api.github.com/users/klingerf/events{/privacy}",
      "received_events_url": "https://api.github.com/users/klingerf/received_events",
      "type": "User",
      "site_admin": false
    },
    "prerelease": false,
    "created_at": "2017-04-13T21:42:12Z",
    "published_at": "2017-04-13T21:43:37Z",
    "assets": [

    ],
    "tarball_url": "https://api.github.com/repos/linkerd/linkerd-tcp/tarball/0.0.3",
    "zipball_url": "https://api.github.com/repos/linkerd/linkerd-tcp/zipball/0.0.3",
    "body": "* New admin endpoint! POST to `/shutdown` to tell the process to exit.\r\n* Fix connection leak when one peer disconnected.\r\n* Fix stat reporting issue for the rx bytes metric.\r\n* Improve error message when config file cannot be read.\r\n* Update examples to bind to all available sockets by default.\r\n* Add guidelines for contributing to the linkerd-tcp repo.\r\n* Add script for building a slimmer docker image.\r\n* **Breaking change**: Convert namerd config to use `url` field instead of `addr`.\r\n* **Breaking change**: Convert server config attributes from camel to snake case."
  },
  {
    "url": "https://api.github.com/repos/linkerd/linkerd-tcp/releases/5916000",
    "assets_url": "https://api.github.com/repos/linkerd/linkerd-tcp/releases/5916000/assets",
    "upload_url": "https://uploads.github.com/repos/linkerd/linkerd-tcp/releases/5916000/assets{?name,label}",
    "html_url": "https://github.com/linkerd/linkerd-tcp/releases/tag/0.0.1",
    "id": 5916000,
    "tag_name": "0.0.1",
    "target_commitish": "master",
    "name": "0.0.1",
    "draft": false,
    "author": {
      "login": "klingerf",
      "id": 9226,
      "avatar_url": "https://avatars3.githubusercontent.com/u/9226?v=3",
      "gravatar_id": "",
      "url": "https://api.github.com/users/klingerf",
      "html_url": "https://github.com/klingerf",
      "followers_url": "https://api.github.com/users/klingerf/followers",
      "following_url": "https://api.github.com/users/klingerf/following{/other_user}",
      "gists_url": "https://api.github.com/users/klingerf/gists{/gist_id}",
      "starred_url": "https://api.github.com/users/klingerf/starred{/owner}{/repo}",
      "subscriptions_url": "https://api.github.com/users/klingerf/subscriptions",
      "organizations_url": "https://api.github.com/users/klingerf/orgs",
      "repos_url": "https://api.github.com/users/klingerf/repos",
      "events_url": "https://api.github.com/users/klingerf/events{/privacy}",
      "received_events_url": "https://api.github.com/users/klingerf/received_events",
      "type": "User",
      "site_admin": false
    },
    "prerelease": false,
    "created_at": "2017-03-22T19:26:13Z",
    "published_at": "2017-03-29T23:05:17Z",
    "assets": [

    ],
    "tarball_url": "https://api.github.com/repos/linkerd/linkerd-tcp/tarball/0.0.1",
    "zipball_url": "https://api.github.com/repos/linkerd/linkerd-tcp/zipball/0.0.1",
    "body": "Introducing linkerd-tcp. :balloon:\r\n\r\n* Runs a TCP load balancer for the [Linkerd][https://linkerd.io] service mesh.\r\n* Supports TLS and integrates with Namerd for service discovery.\r\n* Reads a YAML or JSON configuration file at startup."
  },
  {
    "url": "https://api.github.com/repos/linkerd/linkerd-tcp/releases/5915992",
    "assets_url": "https://api.github.com/repos/linkerd/linkerd-tcp/releases/5915992/assets",
    "upload_url": "https://uploads.github.com/repos/linkerd/linkerd-tcp/releases/5915992/assets{?name,label}",
    "html_url": "https://github.com/linkerd/linkerd-tcp/releases/tag/0.0.2",
    "id": 5915992,
    "tag_name": "0.0.2",
    "target_commitish": "master",
    "name": "0.0.2",
    "draft": false,
    "author": {
      "login": "klingerf",
      "id": 9226,
      "avatar_url": "https://avatars3.githubusercontent.com/u/9226?v=3",
      "gravatar_id": "",
      "url": "https://api.github.com/users/klingerf",
      "html_url": "https://github.com/klingerf",
      "followers_url": "https://api.github.com/users/klingerf/followers",
      "following_url": "https://api.github.com/users/klingerf/following{/other_user}",
      "gists_url": "https://api.github.com/users/klingerf/gists{/gist_id}",
      "starred_url": "https://api.github.com/users/klingerf/starred{/owner}{/repo}",
      "subscriptions_url": "https://api.github.com/users/klingerf/subscriptions",
      "organizations_url": "https://api.github.com/users/klingerf/orgs",
      "repos_url": "https://api.github.com/users/klingerf/repos",
      "events_url": "https://api.github.com/users/klingerf/events{/privacy}",
      "received_events_url": "https://api.github.com/users/klingerf/received_events",
      "type": "User",
      "site_admin": false
    },
    "prerelease": false,
    "created_at": "2017-03-29T23:01:34Z",
    "published_at": "2017-03-29T23:04:31Z",
    "assets": [

    ],
    "tarball_url": "https://api.github.com/repos/linkerd/linkerd-tcp/tarball/0.0.2",
    "zipball_url": "https://api.github.com/repos/linkerd/linkerd-tcp/zipball/0.0.2",
    "body": "* Exposes a configurable admin server with Prometheus metrics."
  }
]
