{
  "id": 84870943,
  "name": "fluent-bit-packaging",
  "full_name": "fluent/fluent-bit-packaging",
  "owner": {
    "login": "fluent",
    "id": 859518,
    "avatar_url": "https://avatars3.githubusercontent.com/u/859518?v=3",
    "gravatar_id": "",
    "url": "https://api.github.com/users/fluent",
    "html_url": "https://github.com/fluent",
    "followers_url": "https://api.github.com/users/fluent/followers",
    "following_url": "https://api.github.com/users/fluent/following{/other_user}",
    "gists_url": "https://api.github.com/users/fluent/gists{/gist_id}",
    "starred_url": "https://api.github.com/users/fluent/starred{/owner}{/repo}",
    "subscriptions_url": "https://api.github.com/users/fluent/subscriptions",
    "organizations_url": "https://api.github.com/users/fluent/orgs",
    "repos_url": "https://api.github.com/users/fluent/repos",
    "events_url": "https://api.github.com/users/fluent/events{/privacy}",
    "received_events_url": "https://api.github.com/users/fluent/received_events",
    "type": "Organization",
    "site_admin": false
  },
  "private": false,
  "html_url": "https://github.com/fluent/fluent-bit-packaging",
  "description": "Fluent Bit Linux Packaging environment using Docker",
  "fork": false,
  "url": "https://api.github.com/repos/fluent/fluent-bit-packaging",
  "forks_url": "https://api.github.com/repos/fluent/fluent-bit-packaging/forks",
  "keys_url": "https://api.github.com/repos/fluent/fluent-bit-packaging/keys{/key_id}",
  "collaborators_url": "https://api.github.com/repos/fluent/fluent-bit-packaging/collaborators{/collaborator}",
  "teams_url": "https://api.github.com/repos/fluent/fluent-bit-packaging/teams",
  "hooks_url": "https://api.github.com/repos/fluent/fluent-bit-packaging/hooks",
  "issue_events_url": "https://api.github.com/repos/fluent/fluent-bit-packaging/issues/events{/number}",
  "events_url": "https://api.github.com/repos/fluent/fluent-bit-packaging/events",
  "assignees_url": "https://api.github.com/repos/fluent/fluent-bit-packaging/assignees{/user}",
  "branches_url": "https://api.github.com/repos/fluent/fluent-bit-packaging/branches{/branch}",
  "tags_url": "https://api.github.com/repos/fluent/fluent-bit-packaging/tags",
  "blobs_url": "https://api.github.com/repos/fluent/fluent-bit-packaging/git/blobs{/sha}",
  "git_tags_url": "https://api.github.com/repos/fluent/fluent-bit-packaging/git/tags{/sha}",
  "git_refs_url": "https://api.github.com/repos/fluent/fluent-bit-packaging/git/refs{/sha}",
  "trees_url": "https://api.github.com/repos/fluent/fluent-bit-packaging/git/trees{/sha}",
  "statuses_url": "https://api.github.com/repos/fluent/fluent-bit-packaging/statuses/{sha}",
  "languages_url": "https://api.github.com/repos/fluent/fluent-bit-packaging/languages",
  "stargazers_url": "https://api.github.com/repos/fluent/fluent-bit-packaging/stargazers",
  "contributors_url": "https://api.github.com/repos/fluent/fluent-bit-packaging/contributors",
  "subscribers_url": "https://api.github.com/repos/fluent/fluent-bit-packaging/subscribers",
  "subscription_url": "https://api.github.com/repos/fluent/fluent-bit-packaging/subscription",
  "commits_url": "https://api.github.com/repos/fluent/fluent-bit-packaging/commits{/sha}",
  "git_commits_url": "https://api.github.com/repos/fluent/fluent-bit-packaging/git/commits{/sha}",
  "comments_url": "https://api.github.com/repos/fluent/fluent-bit-packaging/comments{/number}",
  "issue_comment_url": "https://api.github.com/repos/fluent/fluent-bit-packaging/issues/comments{/number}",
  "contents_url": "https://api.github.com/repos/fluent/fluent-bit-packaging/contents/{+path}",
  "compare_url": "https://api.github.com/repos/fluent/fluent-bit-packaging/compare/{base}...{head}",
  "merges_url": "https://api.github.com/repos/fluent/fluent-bit-packaging/merges",
  "archive_url": "https://api.github.com/repos/fluent/fluent-bit-packaging/{archive_format}{/ref}",
  "downloads_url": "https://api.github.com/repos/fluent/fluent-bit-packaging/downloads",
  "issues_url": "https://api.github.com/repos/fluent/fluent-bit-packaging/issues{/number}",
  "pulls_url": "https://api.github.com/repos/fluent/fluent-bit-packaging/pulls{/number}",
  "milestones_url": "https://api.github.com/repos/fluent/fluent-bit-packaging/milestones{/number}",
  "notifications_url": "https://api.github.com/repos/fluent/fluent-bit-packaging/notifications{?since,all,participating}",
  "labels_url": "https://api.github.com/repos/fluent/fluent-bit-packaging/labels{/name}",
  "releases_url": "https://api.github.com/repos/fluent/fluent-bit-packaging/releases{/id}",
  "deployments_url": "https://api.github.com/repos/fluent/fluent-bit-packaging/deployments",
  "created_at": "2017-03-13T20:23:20Z",
  "updated_at": "2017-03-13T20:24:16Z",
  "pushed_at": "2017-04-04T21:42:12Z",
  "git_url": "git://github.com/fluent/fluent-bit-packaging.git",
  "ssh_url": "git@github.com:fluent/fluent-bit-packaging.git",
  "clone_url": "https://github.com/fluent/fluent-bit-packaging.git",
  "svn_url": "https://github.com/fluent/fluent-bit-packaging",
  "homepage": null,
  "size": 7,
  "stargazers_count": 0,
  "watchers_count": 0,
  "language": "Shell",
  "has_issues": true,
  "has_projects": true,
  "has_downloads": true,
  "has_wiki": true,
  "has_pages": false,
  "forks_count": 1,
  "mirror_url": null,
  "open_issues_count": 0,
  "forks": 1,
  "open_issues": 0,
  "watchers": 0,
  "default_branch": "master",
  "permissions": {
    "admin": false,
    "push": false,
    "pull": true
  },
  "organization": {
    "login": "fluent",
    "id": 859518,
    "avatar_url": "https://avatars3.githubusercontent.com/u/859518?v=3",
    "gravatar_id": "",
    "url": "https://api.github.com/users/fluent",
    "html_url": "https://github.com/fluent",
    "followers_url": "https://api.github.com/users/fluent/followers",
    "following_url": "https://api.github.com/users/fluent/following{/other_user}",
    "gists_url": "https://api.github.com/users/fluent/gists{/gist_id}",
    "starred_url": "https://api.github.com/users/fluent/starred{/owner}{/repo}",
    "subscriptions_url": "https://api.github.com/users/fluent/subscriptions",
    "organizations_url": "https://api.github.com/users/fluent/orgs",
    "repos_url": "https://api.github.com/users/fluent/repos",
    "events_url": "https://api.github.com/users/fluent/events{/privacy}",
    "received_events_url": "https://api.github.com/users/fluent/received_events",
    "type": "Organization",
    "site_admin": false
  },
  "network_count": 1,
  "subscribers_count": 8
}
