{
  "id": 57939112,
  "name": "community",
  "full_name": "kubernetes/community",
  "owner": {
    "login": "kubernetes",
    "id": 13629408,
    "avatar_url": "https://avatars1.githubusercontent.com/u/13629408?v=3",
    "gravatar_id": "",
    "url": "https://api.github.com/users/kubernetes",
    "html_url": "https://github.com/kubernetes",
    "followers_url": "https://api.github.com/users/kubernetes/followers",
    "following_url": "https://api.github.com/users/kubernetes/following{/other_user}",
    "gists_url": "https://api.github.com/users/kubernetes/gists{/gist_id}",
    "starred_url": "https://api.github.com/users/kubernetes/starred{/owner}{/repo}",
    "subscriptions_url": "https://api.github.com/users/kubernetes/subscriptions",
    "organizations_url": "https://api.github.com/users/kubernetes/orgs",
    "repos_url": "https://api.github.com/users/kubernetes/repos",
    "events_url": "https://api.github.com/users/kubernetes/events{/privacy}",
    "received_events_url": "https://api.github.com/users/kubernetes/received_events",
    "type": "Organization",
    "site_admin": false
  },
  "private": false,
  "html_url": "https://github.com/kubernetes/community",
  "description": "Kubernetes community content",
  "fork": false,
  "url": "https://api.github.com/repos/kubernetes/community",
  "forks_url": "https://api.github.com/repos/kubernetes/community/forks",
  "keys_url": "https://api.github.com/repos/kubernetes/community/keys{/key_id}",
  "collaborators_url": "https://api.github.com/repos/kubernetes/community/collaborators{/collaborator}",
  "teams_url": "https://api.github.com/repos/kubernetes/community/teams",
  "hooks_url": "https://api.github.com/repos/kubernetes/community/hooks",
  "issue_events_url": "https://api.github.com/repos/kubernetes/community/issues/events{/number}",
  "events_url": "https://api.github.com/repos/kubernetes/community/events",
  "assignees_url": "https://api.github.com/repos/kubernetes/community/assignees{/user}",
  "branches_url": "https://api.github.com/repos/kubernetes/community/branches{/branch}",
  "tags_url": "https://api.github.com/repos/kubernetes/community/tags",
  "blobs_url": "https://api.github.com/repos/kubernetes/community/git/blobs{/sha}",
  "git_tags_url": "https://api.github.com/repos/kubernetes/community/git/tags{/sha}",
  "git_refs_url": "https://api.github.com/repos/kubernetes/community/git/refs{/sha}",
  "trees_url": "https://api.github.com/repos/kubernetes/community/git/trees{/sha}",
  "statuses_url": "https://api.github.com/repos/kubernetes/community/statuses/{sha}",
  "languages_url": "https://api.github.com/repos/kubernetes/community/languages",
  "stargazers_url": "https://api.github.com/repos/kubernetes/community/stargazers",
  "contributors_url": "https://api.github.com/repos/kubernetes/community/contributors",
  "subscribers_url": "https://api.github.com/repos/kubernetes/community/subscribers",
  "subscription_url": "https://api.github.com/repos/kubernetes/community/subscription",
  "commits_url": "https://api.github.com/repos/kubernetes/community/commits{/sha}",
  "git_commits_url": "https://api.github.com/repos/kubernetes/community/git/commits{/sha}",
  "comments_url": "https://api.github.com/repos/kubernetes/community/comments{/number}",
  "issue_comment_url": "https://api.github.com/repos/kubernetes/community/issues/comments{/number}",
  "contents_url": "https://api.github.com/repos/kubernetes/community/contents/{+path}",
  "compare_url": "https://api.github.com/repos/kubernetes/community/compare/{base}...{head}",
  "merges_url": "https://api.github.com/repos/kubernetes/community/merges",
  "archive_url": "https://api.github.com/repos/kubernetes/community/{archive_format}{/ref}",
  "downloads_url": "https://api.github.com/repos/kubernetes/community/downloads",
  "issues_url": "https://api.github.com/repos/kubernetes/community/issues{/number}",
  "pulls_url": "https://api.github.com/repos/kubernetes/community/pulls{/number}",
  "milestones_url": "https://api.github.com/repos/kubernetes/community/milestones{/number}",
  "notifications_url": "https://api.github.com/repos/kubernetes/community/notifications{?since,all,participating}",
  "labels_url": "https://api.github.com/repos/kubernetes/community/labels{/name}",
  "releases_url": "https://api.github.com/repos/kubernetes/community/releases{/id}",
  "deployments_url": "https://api.github.com/repos/kubernetes/community/deployments",
  "created_at": "2016-05-03T03:36:05Z",
  "updated_at": "2017-05-14T23:40:17Z",
  "pushed_at": "2017-05-15T03:06:29Z",
  "git_url": "git://github.com/kubernetes/community.git",
  "ssh_url": "git@github.com:kubernetes/community.git",
  "clone_url": "https://github.com/kubernetes/community.git",
  "svn_url": "https://github.com/kubernetes/community",
  "homepage": "",
  "size": 8308,
  "stargazers_count": 421,
  "watchers_count": 421,
  "language": "Makefile",
  "has_issues": true,
  "has_projects": true,
  "has_downloads": true,
  "has_wiki": true,
  "has_pages": false,
  "forks_count": 384,
  "mirror_url": null,
  "open_issues_count": 131,
  "forks": 384,
  "open_issues": 131,
  "watchers": 421,
  "default_branch": "master",
  "permissions": {
    "admin": false,
    "push": false,
    "pull": true
  },
  "organization": {
    "login": "kubernetes",
    "id": 13629408,
    "avatar_url": "https://avatars1.githubusercontent.com/u/13629408?v=3",
    "gravatar_id": "",
    "url": "https://api.github.com/users/kubernetes",
    "html_url": "https://github.com/kubernetes",
    "followers_url": "https://api.github.com/users/kubernetes/followers",
    "following_url": "https://api.github.com/users/kubernetes/following{/other_user}",
    "gists_url": "https://api.github.com/users/kubernetes/gists{/gist_id}",
    "starred_url": "https://api.github.com/users/kubernetes/starred{/owner}{/repo}",
    "subscriptions_url": "https://api.github.com/users/kubernetes/subscriptions",
    "organizations_url": "https://api.github.com/users/kubernetes/orgs",
    "repos_url": "https://api.github.com/users/kubernetes/repos",
    "events_url": "https://api.github.com/users/kubernetes/events{/privacy}",
    "received_events_url": "https://api.github.com/users/kubernetes/received_events",
    "type": "Organization",
    "site_admin": false
  },
  "network_count": 384,
  "subscribers_count": 194
}
