[
  {
    "url": "https://api.github.com/repos/kubernetes/heapster/releases/5783649",
    "assets_url": "https://api.github.com/repos/kubernetes/heapster/releases/5783649/assets",
    "upload_url": "https://uploads.github.com/repos/kubernetes/heapster/releases/5783649/assets{?name,label}",
    "html_url": "https://github.com/kubernetes/heapster/releases/tag/v1.3.0",
    "id": 5783649,
    "tag_name": "v1.3.0",
    "target_commitish": "release-1.3",
    "name": "Heapster v1.3.0",
    "draft": false,
    "author": {
      "login": "piosz",
      "id": 10819974,
      "avatar_url": "https://avatars3.githubusercontent.com/u/10819974?v=3",
      "gravatar_id": "",
      "url": "https://api.github.com/users/piosz",
      "html_url": "https://github.com/piosz",
      "followers_url": "https://api.github.com/users/piosz/followers",
      "following_url": "https://api.github.com/users/piosz/following{/other_user}",
      "gists_url": "https://api.github.com/users/piosz/gists{/gist_id}",
      "starred_url": "https://api.github.com/users/piosz/starred{/owner}{/repo}",
      "subscriptions_url": "https://api.github.com/users/piosz/subscriptions",
      "organizations_url": "https://api.github.com/users/piosz/orgs",
      "repos_url": "https://api.github.com/users/piosz/repos",
      "events_url": "https://api.github.com/users/piosz/events{/privacy}",
      "received_events_url": "https://api.github.com/users/piosz/received_events",
      "type": "User",
      "site_admin": false
    },
    "prerelease": false,
    "created_at": "2017-03-17T16:12:32Z",
    "published_at": "2017-03-17T16:20:13Z",
    "assets": [

    ],
    "tarball_url": "https://api.github.com/repos/kubernetes/heapster/tarball/v1.3.0",
    "zipball_url": "https://api.github.com/repos/kubernetes/heapster/zipball/v1.3.0",
    "body": "Significant changes:\r\nTBD\r\n\r\nImages are available in Google Container Registry as:\r\n```\r\ngcr.io/google_containers/heapster-s390x:v1.3.0\r\ngcr.io/google_containers/heapster-ppc64le:v1.3.0\r\ngcr.io/google_containers/heapster-arm64:v1.3.0\r\ngcr.io/google_containers/heapster-arm:v1.3.0\r\ngcr.io/google_containers/heapster-amd64:v1.3.0\r\n```"
  },
  {
    "url": "https://api.github.com/repos/kubernetes/heapster/releases/5075364",
    "assets_url": "https://api.github.com/repos/kubernetes/heapster/releases/5075364/assets",
    "upload_url": "https://uploads.github.com/repos/kubernetes/heapster/releases/5075364/assets{?name,label}",
    "html_url": "https://github.com/kubernetes/heapster/releases/tag/v1.3.0-beta.0",
    "id": 5075364,
    "tag_name": "v1.3.0-beta.0",
    "target_commitish": "master",
    "name": "Heapster v1.3.0-beta.0",
    "draft": false,
    "author": {
      "login": "piosz",
      "id": 10819974,
      "avatar_url": "https://avatars3.githubusercontent.com/u/10819974?v=3",
      "gravatar_id": "",
      "url": "https://api.github.com/users/piosz",
      "html_url": "https://github.com/piosz",
      "followers_url": "https://api.github.com/users/piosz/followers",
      "following_url": "https://api.github.com/users/piosz/following{/other_user}",
      "gists_url": "https://api.github.com/users/piosz/gists{/gist_id}",
      "starred_url": "https://api.github.com/users/piosz/starred{/owner}{/repo}",
      "subscriptions_url": "https://api.github.com/users/piosz/subscriptions",
      "organizations_url": "https://api.github.com/users/piosz/orgs",
      "repos_url": "https://api.github.com/users/piosz/repos",
      "events_url": "https://api.github.com/users/piosz/events{/privacy}",
      "received_events_url": "https://api.github.com/users/piosz/received_events",
      "type": "User",
      "site_admin": false
    },
    "prerelease": true,
    "created_at": "2017-01-05T10:14:51Z",
    "published_at": "2017-01-05T10:20:57Z",
    "assets": [

    ],
    "tarball_url": "https://api.github.com/repos/kubernetes/heapster/tarball/v1.3.0-beta.0",
    "zipball_url": "https://api.github.com/repos/kubernetes/heapster/zipball/v1.3.0-beta.0",
    "body": "Image available in Google Container Registry as `gcr.io/google_containers/heapster:v1.3.0-beta.0`\n"
  },
  {
    "url": "https://api.github.com/repos/kubernetes/heapster/releases/4126161",
    "assets_url": "https://api.github.com/repos/kubernetes/heapster/releases/4126161/assets",
    "upload_url": "https://uploads.github.com/repos/kubernetes/heapster/releases/4126161/assets{?name,label}",
    "html_url": "https://github.com/kubernetes/heapster/releases/tag/v1.2.0",
    "id": 4126161,
    "tag_name": "v1.2.0",
    "target_commitish": "release-1.2",
    "name": "Heapster v1.2.0",
    "draft": false,
    "author": {
      "login": "piosz",
      "id": 10819974,
      "avatar_url": "https://avatars3.githubusercontent.com/u/10819974?v=3",
      "gravatar_id": "",
      "url": "https://api.github.com/users/piosz",
      "html_url": "https://github.com/piosz",
      "followers_url": "https://api.github.com/users/piosz/followers",
      "following_url": "https://api.github.com/users/piosz/following{/other_user}",
      "gists_url": "https://api.github.com/users/piosz/gists{/gist_id}",
      "starred_url": "https://api.github.com/users/piosz/starred{/owner}{/repo}",
      "subscriptions_url": "https://api.github.com/users/piosz/subscriptions",
      "organizations_url": "https://api.github.com/users/piosz/orgs",
      "repos_url": "https://api.github.com/users/piosz/repos",
      "events_url": "https://api.github.com/users/piosz/events{/privacy}",
      "received_events_url": "https://api.github.com/users/piosz/received_events",
      "type": "User",
      "site_admin": false
    },
    "prerelease": false,
    "created_at": "2016-09-14T04:47:24Z",
    "published_at": "2016-09-14T06:34:03Z",
    "assets": [

    ],
    "tarball_url": "https://api.github.com/repos/kubernetes/heapster/tarball/v1.2.0",
    "zipball_url": "https://api.github.com/repos/kubernetes/heapster/zipball/v1.2.0",
    "body": "Significant changes:\n- introduced Historical API with support for InfluxDB (#1172)\n- updated InfluxDB to 0.12 (#1204)\n- added \"/healthz\" endpoint to Heapster (#1271) \n- breaking change in Metrics API - list of pods/nodes as PodMetricsList/NodeMetricsList (#1228)\n- improvements in Metrics API (#1231, #1264) \n- improvements in ElasticSearch sink (#1198, #1260, #1276)\n\nImage available in Google Container Registry as `gcr.io/google_containers/heapster:v1.2.0`.\n"
  },
  {
    "url": "https://api.github.com/repos/kubernetes/heapster/releases/3459731",
    "assets_url": "https://api.github.com/repos/kubernetes/heapster/releases/3459731/assets",
    "upload_url": "https://uploads.github.com/repos/kubernetes/heapster/releases/3459731/assets{?name,label}",
    "html_url": "https://github.com/kubernetes/heapster/releases/tag/v1.1.0",
    "id": 3459731,
    "tag_name": "v1.1.0",
    "target_commitish": "release-1.1",
    "name": "Heapster v1.1.0",
    "draft": false,
    "author": {
      "login": "piosz",
      "id": 10819974,
      "avatar_url": "https://avatars3.githubusercontent.com/u/10819974?v=3",
      "gravatar_id": "",
      "url": "https://api.github.com/users/piosz",
      "html_url": "https://github.com/piosz",
      "followers_url": "https://api.github.com/users/piosz/followers",
      "following_url": "https://api.github.com/users/piosz/following{/other_user}",
      "gists_url": "https://api.github.com/users/piosz/gists{/gist_id}",
      "starred_url": "https://api.github.com/users/piosz/starred{/owner}{/repo}",
      "subscriptions_url": "https://api.github.com/users/piosz/subscriptions",
      "organizations_url": "https://api.github.com/users/piosz/orgs",
      "repos_url": "https://api.github.com/users/piosz/repos",
      "events_url": "https://api.github.com/users/piosz/events{/privacy}",
      "received_events_url": "https://api.github.com/users/piosz/received_events",
      "type": "User",
      "site_admin": false
    },
    "prerelease": false,
    "created_at": "2016-06-16T13:48:19Z",
    "published_at": "2016-06-16T14:49:50Z",
    "assets": [

    ],
    "tarball_url": "https://api.github.com/repos/kubernetes/heapster/tarball/v1.1.0",
    "zipball_url": "https://api.github.com/repos/kubernetes/heapster/zipball/v1.1.0",
    "body": "Significant changes:\n- introduced Master Metrics API (#1151, #1152, #1161)\n- changed default metric resolution to 60s (#1164)\n- introduced Elasticsearch sink (#733)\n- updated Kubernetes in godeps (#1158)\n- fixed issues in GCM, Hawkular and Riemann sinks\n- various bug fixes\n\nImage available in Google Container Registry as `gcr.io/google_containers/heapster:v1.1.0`.\n"
  },
  {
    "url": "https://api.github.com/repos/kubernetes/heapster/releases/2927916",
    "assets_url": "https://api.github.com/repos/kubernetes/heapster/releases/2927916/assets",
    "upload_url": "https://uploads.github.com/repos/kubernetes/heapster/releases/2927916/assets{?name,label}",
    "html_url": "https://github.com/kubernetes/heapster/releases/tag/v1.0.2",
    "id": 2927916,
    "tag_name": "v1.0.2",
    "target_commitish": "release-1.0",
    "name": "Heapster v1.0.2",
    "draft": false,
    "author": {
      "login": "piosz",
      "id": 10819974,
      "avatar_url": "https://avatars3.githubusercontent.com/u/10819974?v=3",
      "gravatar_id": "",
      "url": "https://api.github.com/users/piosz",
      "html_url": "https://github.com/piosz",
      "followers_url": "https://api.github.com/users/piosz/followers",
      "following_url": "https://api.github.com/users/piosz/following{/other_user}",
      "gists_url": "https://api.github.com/users/piosz/gists{/gist_id}",
      "starred_url": "https://api.github.com/users/piosz/starred{/owner}{/repo}",
      "subscriptions_url": "https://api.github.com/users/piosz/subscriptions",
      "organizations_url": "https://api.github.com/users/piosz/orgs",
      "repos_url": "https://api.github.com/users/piosz/repos",
      "events_url": "https://api.github.com/users/piosz/events{/privacy}",
      "received_events_url": "https://api.github.com/users/piosz/received_events",
      "type": "User",
      "site_admin": false
    },
    "prerelease": false,
    "created_at": "2016-03-31T18:20:42Z",
    "published_at": "2016-03-31T19:47:04Z",
    "assets": [

    ],
    "tarball_url": "https://api.github.com/repos/kubernetes/heapster/tarball/v1.0.2",
    "zipball_url": "https://api.github.com/repos/kubernetes/heapster/zipball/v1.0.2",
    "body": "Changes:\n- Enable namespace_id for GKE #1105\n\nImage available in Google Container Registry as `gcr.io/google_containers/heapster:v1.0.2`.\n"
  },
  {
    "url": "https://api.github.com/repos/kubernetes/heapster/releases/2887970",
    "assets_url": "https://api.github.com/repos/kubernetes/heapster/releases/2887970/assets",
    "upload_url": "https://uploads.github.com/repos/kubernetes/heapster/releases/2887970/assets{?name,label}",
    "html_url": "https://github.com/kubernetes/heapster/releases/tag/v1.0.1",
    "id": 2887970,
    "tag_name": "v1.0.1",
    "target_commitish": "release-1.0",
    "name": "Heapster v1.0.1",
    "draft": false,
    "author": {
      "login": "piosz",
      "id": 10819974,
      "avatar_url": "https://avatars3.githubusercontent.com/u/10819974?v=3",
      "gravatar_id": "",
      "url": "https://api.github.com/users/piosz",
      "html_url": "https://github.com/piosz",
      "followers_url": "https://api.github.com/users/piosz/followers",
      "following_url": "https://api.github.com/users/piosz/following{/other_user}",
      "gists_url": "https://api.github.com/users/piosz/gists{/gist_id}",
      "starred_url": "https://api.github.com/users/piosz/starred{/owner}{/repo}",
      "subscriptions_url": "https://api.github.com/users/piosz/subscriptions",
      "organizations_url": "https://api.github.com/users/piosz/orgs",
      "repos_url": "https://api.github.com/users/piosz/repos",
      "events_url": "https://api.github.com/users/piosz/events{/privacy}",
      "received_events_url": "https://api.github.com/users/piosz/received_events",
      "type": "User",
      "site_admin": false
    },
    "prerelease": false,
    "created_at": "2016-03-25T13:16:42Z",
    "published_at": "2016-03-25T13:23:10Z",
    "assets": [

    ],
    "tarball_url": "https://api.github.com/repos/kubernetes/heapster/tarball/v1.0.1",
    "zipball_url": "https://api.github.com/repos/kubernetes/heapster/zipball/v1.0.1",
    "body": "Changes:\n- Compare time with equals #1095\n- Updated google compute metadata library #1098\n\nImage available in Google Container Registry as `gcr.io/google_containers/heapster:v1.0.1`.\n"
  },
  {
    "url": "https://api.github.com/repos/kubernetes/heapster/releases/2816564",
    "assets_url": "https://api.github.com/repos/kubernetes/heapster/releases/2816564/assets",
    "upload_url": "https://uploads.github.com/repos/kubernetes/heapster/releases/2816564/assets{?name,label}",
    "html_url": "https://github.com/kubernetes/heapster/releases/tag/v1.0.0",
    "id": 2816564,
    "tag_name": "v1.0.0",
    "target_commitish": "release-1.0",
    "name": "Heapster v1.0.0",
    "draft": false,
    "author": {
      "login": "piosz",
      "id": 10819974,
      "avatar_url": "https://avatars3.githubusercontent.com/u/10819974?v=3",
      "gravatar_id": "",
      "url": "https://api.github.com/users/piosz",
      "html_url": "https://github.com/piosz",
      "followers_url": "https://api.github.com/users/piosz/followers",
      "following_url": "https://api.github.com/users/piosz/following{/other_user}",
      "gists_url": "https://api.github.com/users/piosz/gists{/gist_id}",
      "starred_url": "https://api.github.com/users/piosz/starred{/owner}{/repo}",
      "subscriptions_url": "https://api.github.com/users/piosz/subscriptions",
      "organizations_url": "https://api.github.com/users/piosz/orgs",
      "repos_url": "https://api.github.com/users/piosz/repos",
      "events_url": "https://api.github.com/users/piosz/events{/privacy}",
      "received_events_url": "https://api.github.com/users/piosz/received_events",
      "type": "User",
      "site_admin": false
    },
    "prerelease": false,
    "created_at": "2016-03-15T16:29:17Z",
    "published_at": "2016-03-15T16:41:47Z",
    "assets": [

    ],
    "tarball_url": "https://api.github.com/repos/kubernetes/heapster/tarball/v1.0.0",
    "zipball_url": "https://api.github.com/repos/kubernetes/heapster/zipball/v1.0.0",
    "body": "Brand new Heapster rewritten in line with proposal #769.\n\nImage available in Google Container Registry as `gcr.io/google_containers/heapster:v1.0.0`.\n"
  },
  {
    "url": "https://api.github.com/repos/kubernetes/heapster/releases/2489188",
    "assets_url": "https://api.github.com/repos/kubernetes/heapster/releases/2489188/assets",
    "upload_url": "https://uploads.github.com/repos/kubernetes/heapster/releases/2489188/assets{?name,label}",
    "html_url": "https://github.com/kubernetes/heapster/releases/tag/v0.18.5",
    "id": 2489188,
    "tag_name": "v0.18.5",
    "target_commitish": "master",
    "name": "Heapster v0.18.5",
    "draft": false,
    "author": {
      "login": "piosz",
      "id": 10819974,
      "avatar_url": "https://avatars3.githubusercontent.com/u/10819974?v=3",
      "gravatar_id": "",
      "url": "https://api.github.com/users/piosz",
      "html_url": "https://github.com/piosz",
      "followers_url": "https://api.github.com/users/piosz/followers",
      "following_url": "https://api.github.com/users/piosz/following{/other_user}",
      "gists_url": "https://api.github.com/users/piosz/gists{/gist_id}",
      "starred_url": "https://api.github.com/users/piosz/starred{/owner}{/repo}",
      "subscriptions_url": "https://api.github.com/users/piosz/subscriptions",
      "organizations_url": "https://api.github.com/users/piosz/orgs",
      "repos_url": "https://api.github.com/users/piosz/repos",
      "events_url": "https://api.github.com/users/piosz/events{/privacy}",
      "received_events_url": "https://api.github.com/users/piosz/received_events",
      "type": "User",
      "site_admin": false
    },
    "prerelease": false,
    "created_at": "2016-01-25T20:30:49Z",
    "published_at": "2016-01-25T20:49:34Z",
    "assets": [

    ],
    "tarball_url": "https://api.github.com/repos/kubernetes/heapster/tarball/v0.18.5",
    "zipball_url": "https://api.github.com/repos/kubernetes/heapster/zipball/v0.18.5",
    "body": "Changes:\n- Fixed nil pointer refrence panic in Kubernetes source.\n\nImage available in Google Container Registry as `gcr.io/google_containers/heapster:v0.18.5`.\n"
  },
  {
    "url": "https://api.github.com/repos/kubernetes/heapster/releases/2426095",
    "assets_url": "https://api.github.com/repos/kubernetes/heapster/releases/2426095/assets",
    "upload_url": "https://uploads.github.com/repos/kubernetes/heapster/releases/2426095/assets{?name,label}",
    "html_url": "https://github.com/kubernetes/heapster/releases/tag/v0.18.4",
    "id": 2426095,
    "tag_name": "v0.18.4",
    "target_commitish": "release-0.18.0",
    "name": "Heapster v0.18.4",
    "draft": false,
    "author": {
      "login": "piosz",
      "id": 10819974,
      "avatar_url": "https://avatars3.githubusercontent.com/u/10819974?v=3",
      "gravatar_id": "",
      "url": "https://api.github.com/users/piosz",
      "html_url": "https://github.com/piosz",
      "followers_url": "https://api.github.com/users/piosz/followers",
      "following_url": "https://api.github.com/users/piosz/following{/other_user}",
      "gists_url": "https://api.github.com/users/piosz/gists{/gist_id}",
      "starred_url": "https://api.github.com/users/piosz/starred{/owner}{/repo}",
      "subscriptions_url": "https://api.github.com/users/piosz/subscriptions",
      "organizations_url": "https://api.github.com/users/piosz/orgs",
      "repos_url": "https://api.github.com/users/piosz/repos",
      "events_url": "https://api.github.com/users/piosz/events{/privacy}",
      "received_events_url": "https://api.github.com/users/piosz/received_events",
      "type": "User",
      "site_admin": false
    },
    "prerelease": false,
    "created_at": "2016-01-14T10:14:56Z",
    "published_at": "2016-01-14T10:32:47Z",
    "assets": [

    ],
    "tarball_url": "https://api.github.com/repos/kubernetes/heapster/tarball/v0.18.4",
    "zipball_url": "https://api.github.com/repos/kubernetes/heapster/zipball/v0.18.4",
    "body": "Changes:\n- Refresh broken Kubernetes pods/nodes watch.\n\nImage available in Google Container Registry as `gcr.io/google_containers/heapster:v0.18.4`.\n"
  },
  {
    "url": "https://api.github.com/repos/kubernetes/heapster/releases/2290677",
    "assets_url": "https://api.github.com/repos/kubernetes/heapster/releases/2290677/assets",
    "upload_url": "https://uploads.github.com/repos/kubernetes/heapster/releases/2290677/assets{?name,label}",
    "html_url": "https://github.com/kubernetes/heapster/releases/tag/v0.19.1",
    "id": 2290677,
    "tag_name": "v0.19.1",
    "target_commitish": "master",
    "name": "Heapster v0.19.1",
    "draft": false,
    "author": {
      "login": "mwielgus",
      "id": 11994812,
      "avatar_url": "https://avatars1.githubusercontent.com/u/11994812?v=3",
      "gravatar_id": "",
      "url": "https://api.github.com/users/mwielgus",
      "html_url": "https://github.com/mwielgus",
      "followers_url": "https://api.github.com/users/mwielgus/followers",
      "following_url": "https://api.github.com/users/mwielgus/following{/other_user}",
      "gists_url": "https://api.github.com/users/mwielgus/gists{/gist_id}",
      "starred_url": "https://api.github.com/users/mwielgus/starred{/owner}{/repo}",
      "subscriptions_url": "https://api.github.com/users/mwielgus/subscriptions",
      "organizations_url": "https://api.github.com/users/mwielgus/orgs",
      "repos_url": "https://api.github.com/users/mwielgus/repos",
      "events_url": "https://api.github.com/users/mwielgus/events{/privacy}",
      "received_events_url": "https://api.github.com/users/mwielgus/received_events",
      "type": "User",
      "site_admin": false
    },
    "prerelease": false,
    "created_at": "2015-12-15T12:57:23Z",
    "published_at": "2015-12-15T14:02:02Z",
    "assets": [

    ],
    "tarball_url": "https://api.github.com/repos/kubernetes/heapster/tarball/v0.19.1",
    "zipball_url": "https://api.github.com/repos/kubernetes/heapster/zipball/v0.19.1",
    "body": "- Better connection handling for InfluxDB.\n- Refresh node and pod lists every 1 hour.\n"
  },
  {
    "url": "https://api.github.com/repos/kubernetes/heapster/releases/2266764",
    "assets_url": "https://api.github.com/repos/kubernetes/heapster/releases/2266764/assets",
    "upload_url": "https://uploads.github.com/repos/kubernetes/heapster/releases/2266764/assets{?name,label}",
    "html_url": "https://github.com/kubernetes/heapster/releases/tag/v0.19.0",
    "id": 2266764,
    "tag_name": "v0.19.0",
    "target_commitish": "master",
    "name": "Heapster v0.19.0",
    "draft": false,
    "author": {
      "login": "mwielgus",
      "id": 11994812,
      "avatar_url": "https://avatars1.githubusercontent.com/u/11994812?v=3",
      "gravatar_id": "",
      "url": "https://api.github.com/users/mwielgus",
      "html_url": "https://github.com/mwielgus",
      "followers_url": "https://api.github.com/users/mwielgus/followers",
      "following_url": "https://api.github.com/users/mwielgus/following{/other_user}",
      "gists_url": "https://api.github.com/users/mwielgus/gists{/gist_id}",
      "starred_url": "https://api.github.com/users/mwielgus/starred{/owner}{/repo}",
      "subscriptions_url": "https://api.github.com/users/mwielgus/subscriptions",
      "organizations_url": "https://api.github.com/users/mwielgus/orgs",
      "repos_url": "https://api.github.com/users/mwielgus/repos",
      "events_url": "https://api.github.com/users/mwielgus/events{/privacy}",
      "received_events_url": "https://api.github.com/users/mwielgus/received_events",
      "type": "User",
      "site_admin": false
    },
    "prerelease": false,
    "created_at": "2015-12-10T13:50:18Z",
    "published_at": "2015-12-10T15:51:45Z",
    "assets": [

    ],
    "tarball_url": "https://api.github.com/repos/kubernetes/heapster/tarball/v0.19.0",
    "zipball_url": "https://api.github.com/repos/kubernetes/heapster/zipball/v0.19.0",
    "body": "Changes\n- Switched to InfluxDB 0.9. The data layout was changed.\n- Added Kafka and Riemann sinks.\n- Removed poll_duration flag.\n- Authentication and security improvements.\n- Fixed an issue with unavailable sink.\n"
  },
  {
    "url": "https://api.github.com/repos/kubernetes/heapster/releases/1904580",
    "assets_url": "https://api.github.com/repos/kubernetes/heapster/releases/1904580/assets",
    "upload_url": "https://uploads.github.com/repos/kubernetes/heapster/releases/1904580/assets{?name,label}",
    "html_url": "https://github.com/kubernetes/heapster/releases/tag/v0.18.2",
    "id": 1904580,
    "tag_name": "v0.18.2",
    "target_commitish": "release-0.18.0",
    "name": "Heapster v0.18.2",
    "draft": false,
    "author": {
      "login": "vishh",
      "id": 7063592,
      "avatar_url": "https://avatars1.githubusercontent.com/u/7063592?v=3",
      "gravatar_id": "",
      "url": "https://api.github.com/users/vishh",
      "html_url": "https://github.com/vishh",
      "followers_url": "https://api.github.com/users/vishh/followers",
      "following_url": "https://api.github.com/users/vishh/following{/other_user}",
      "gists_url": "https://api.github.com/users/vishh/gists{/gist_id}",
      "starred_url": "https://api.github.com/users/vishh/starred{/owner}{/repo}",
      "subscriptions_url": "https://api.github.com/users/vishh/subscriptions",
      "organizations_url": "https://api.github.com/users/vishh/orgs",
      "repos_url": "https://api.github.com/users/vishh/repos",
      "events_url": "https://api.github.com/users/vishh/events{/privacy}",
      "received_events_url": "https://api.github.com/users/vishh/received_events",
      "type": "User",
      "site_admin": false
    },
    "prerelease": false,
    "created_at": "2015-10-02T20:29:17Z",
    "published_at": "2015-10-02T20:38:14Z",
    "assets": [
      {
        "url": "https://api.github.com/repos/kubernetes/heapster/releases/assets/950929",
        "id": 950929,
        "name": "heapster",
        "label": null,
        "uploader": {
          "login": "vishh",
          "id": 7063592,
          "avatar_url": "https://avatars1.githubusercontent.com/u/7063592?v=3",
          "gravatar_id": "",
          "url": "https://api.github.com/users/vishh",
          "html_url": "https://github.com/vishh",
          "followers_url": "https://api.github.com/users/vishh/followers",
          "following_url": "https://api.github.com/users/vishh/following{/other_user}",
          "gists_url": "https://api.github.com/users/vishh/gists{/gist_id}",
          "starred_url": "https://api.github.com/users/vishh/starred{/owner}{/repo}",
          "subscriptions_url": "https://api.github.com/users/vishh/subscriptions",
          "organizations_url": "https://api.github.com/users/vishh/orgs",
          "repos_url": "https://api.github.com/users/vishh/repos",
          "events_url": "https://api.github.com/users/vishh/events{/privacy}",
          "received_events_url": "https://api.github.com/users/vishh/received_events",
          "type": "User",
          "site_admin": false
        },
        "content_type": "application/octet-stream",
        "state": "uploaded",
        "size": 20937144,
        "download_count": 251,
        "created_at": "2015-10-16T21:57:15Z",
        "updated_at": "2015-10-16T21:57:20Z",
        "browser_download_url": "https://github.com/kubernetes/heapster/releases/download/v0.18.2/heapster"
      }
    ],
    "tarball_url": "https://api.github.com/repos/kubernetes/heapster/tarball/v0.18.2",
    "zipball_url": "https://api.github.com/repos/kubernetes/heapster/zipball/v0.18.2",
    "body": "Changes:\n- Export metrics in increasing time order in the decoder.\n\n| binary | hash alg | hash |\n| --- | --- | --- |\n| `heapster` | md5 | `d7b84883dd2acfd29c80277b46985ca7` |\n| `heapster` | sha1 | `e1098750310d7d5301439f256e2ac932d9def1bb` |\n"
  },
  {
    "url": "https://api.github.com/repos/kubernetes/heapster/releases/1837207",
    "assets_url": "https://api.github.com/repos/kubernetes/heapster/releases/1837207/assets",
    "upload_url": "https://uploads.github.com/repos/kubernetes/heapster/releases/1837207/assets{?name,label}",
    "html_url": "https://github.com/kubernetes/heapster/releases/tag/v0.18.1",
    "id": 1837207,
    "tag_name": "v0.18.1",
    "target_commitish": "release-0.18.0",
    "name": "Heaspter v0.18.1",
    "draft": false,
    "author": {
      "login": "vishh",
      "id": 7063592,
      "avatar_url": "https://avatars1.githubusercontent.com/u/7063592?v=3",
      "gravatar_id": "",
      "url": "https://api.github.com/users/vishh",
      "html_url": "https://github.com/vishh",
      "followers_url": "https://api.github.com/users/vishh/followers",
      "following_url": "https://api.github.com/users/vishh/following{/other_user}",
      "gists_url": "https://api.github.com/users/vishh/gists{/gist_id}",
      "starred_url": "https://api.github.com/users/vishh/starred{/owner}{/repo}",
      "subscriptions_url": "https://api.github.com/users/vishh/subscriptions",
      "organizations_url": "https://api.github.com/users/vishh/orgs",
      "repos_url": "https://api.github.com/users/vishh/repos",
      "events_url": "https://api.github.com/users/vishh/events{/privacy}",
      "received_events_url": "https://api.github.com/users/vishh/received_events",
      "type": "User",
      "site_admin": false
    },
    "prerelease": false,
    "created_at": "2015-09-21T22:36:00Z",
    "published_at": "2015-09-22T21:24:20Z",
    "assets": [
      {
        "url": "https://api.github.com/repos/kubernetes/heapster/releases/assets/891038",
        "id": 891038,
        "name": "heapster.tar",
        "label": null,
        "uploader": {
          "login": "vishh",
          "id": 7063592,
          "avatar_url": "https://avatars1.githubusercontent.com/u/7063592?v=3",
          "gravatar_id": "",
          "url": "https://api.github.com/users/vishh",
          "html_url": "https://github.com/vishh",
          "followers_url": "https://api.github.com/users/vishh/followers",
          "following_url": "https://api.github.com/users/vishh/following{/other_user}",
          "gists_url": "https://api.github.com/users/vishh/gists{/gist_id}",
          "starred_url": "https://api.github.com/users/vishh/starred{/owner}{/repo}",
          "subscriptions_url": "https://api.github.com/users/vishh/subscriptions",
          "organizations_url": "https://api.github.com/users/vishh/orgs",
          "repos_url": "https://api.github.com/users/vishh/repos",
          "events_url": "https://api.github.com/users/vishh/events{/privacy}",
          "received_events_url": "https://api.github.com/users/vishh/received_events",
          "type": "User",
          "site_admin": false
        },
        "content_type": "application/x-tar",
        "state": "uploaded",
        "size": 4702452,
        "download_count": 62,
        "created_at": "2015-09-24T17:31:44Z",
        "updated_at": "2015-09-24T17:31:46Z",
        "browser_download_url": "https://github.com/kubernetes/heapster/releases/download/v0.18.1/heapster.tar"
      }
    ],
    "tarball_url": "https://api.github.com/repos/kubernetes/heapster/tarball/v0.18.1",
    "zipball_url": "https://api.github.com/repos/kubernetes/heapster/zipball/v0.18.1",
    "body": "Changes:\n- Avoid using UIDs for Kubernetes events.\n- Export container labels.\n- Hawkular sink upgrades\n\n| binary | hash alg | hash |\n| --- | --- | --- |\n| `heapster` | md5 | `74b4f27706ccfa97c0885f26ad2f9b95` |\n| `heapster` | sha1 | `4e1f9717ad91097fbe1a7e04d7152ea20fafd055` |\n"
  },
  {
    "url": "https://api.github.com/repos/kubernetes/heapster/releases/1818970",
    "assets_url": "https://api.github.com/repos/kubernetes/heapster/releases/1818970/assets",
    "upload_url": "https://uploads.github.com/repos/kubernetes/heapster/releases/1818970/assets{?name,label}",
    "html_url": "https://github.com/kubernetes/heapster/releases/tag/v0.18.0",
    "id": 1818970,
    "tag_name": "v0.18.0",
    "target_commitish": "release-0.18.0",
    "name": "Heapster v0.18.0",
    "draft": false,
    "author": {
      "login": "vishh",
      "id": 7063592,
      "avatar_url": "https://avatars1.githubusercontent.com/u/7063592?v=3",
      "gravatar_id": "",
      "url": "https://api.github.com/users/vishh",
      "html_url": "https://github.com/vishh",
      "followers_url": "https://api.github.com/users/vishh/followers",
      "following_url": "https://api.github.com/users/vishh/following{/other_user}",
      "gists_url": "https://api.github.com/users/vishh/gists{/gist_id}",
      "starred_url": "https://api.github.com/users/vishh/starred{/owner}{/repo}",
      "subscriptions_url": "https://api.github.com/users/vishh/subscriptions",
      "organizations_url": "https://api.github.com/users/vishh/orgs",
      "repos_url": "https://api.github.com/users/vishh/repos",
      "events_url": "https://api.github.com/users/vishh/events{/privacy}",
      "received_events_url": "https://api.github.com/users/vishh/received_events",
      "type": "User",
      "site_admin": false
    },
    "prerelease": true,
    "created_at": "2015-09-15T23:39:16Z",
    "published_at": "2015-09-15T23:43:43Z",
    "assets": [
      {
        "url": "https://api.github.com/repos/kubernetes/heapster/releases/assets/867569",
        "id": 867569,
        "name": "heapster",
        "label": null,
        "uploader": {
          "login": "vishh",
          "id": 7063592,
          "avatar_url": "https://avatars1.githubusercontent.com/u/7063592?v=3",
          "gravatar_id": "",
          "url": "https://api.github.com/users/vishh",
          "html_url": "https://github.com/vishh",
          "followers_url": "https://api.github.com/users/vishh/followers",
          "following_url": "https://api.github.com/users/vishh/following{/other_user}",
          "gists_url": "https://api.github.com/users/vishh/gists{/gist_id}",
          "starred_url": "https://api.github.com/users/vishh/starred{/owner}{/repo}",
          "subscriptions_url": "https://api.github.com/users/vishh/subscriptions",
          "organizations_url": "https://api.github.com/users/vishh/orgs",
          "repos_url": "https://api.github.com/users/vishh/repos",
          "events_url": "https://api.github.com/users/vishh/events{/privacy}",
          "received_events_url": "https://api.github.com/users/vishh/received_events",
          "type": "User",
          "site_admin": false
        },
        "content_type": "application/octet-stream",
        "state": "uploaded",
        "size": 19458704,
        "download_count": 18,
        "created_at": "2015-09-15T23:43:32Z",
        "updated_at": "2015-09-15T23:43:36Z",
        "browser_download_url": "https://github.com/kubernetes/heapster/releases/download/v0.18.0/heapster"
      }
    ],
    "tarball_url": "https://api.github.com/repos/kubernetes/heapster/tarball/v0.18.0",
    "zipball_url": "https://api.github.com/repos/kubernetes/heapster/zipball/v0.18.0",
    "body": "Changes:\n- Cluster Model APIs enabled by default\n- Garbage collection in the cluster model\n- New rolling window based bucketing storage engine for model that significantly reduces memory footprint\n- Many fixes around race conditions with the cache\n- GCP authorization policy updated to reduce flakiness\n\n| binary | hash alg | hash |\n| --- | --- | --- |\n| `heapster` | md5 | `e98bd0f7e696caaef521e14fcf9b2a3d` |\n| `heapster` | sha1 | `28e42e454c9c830543ba078315af3c7debbfa772` |\n"
  },
  {
    "url": "https://api.github.com/repos/kubernetes/heapster/releases/1629483",
    "assets_url": "https://api.github.com/repos/kubernetes/heapster/releases/1629483/assets",
    "upload_url": "https://uploads.github.com/repos/kubernetes/heapster/releases/1629483/assets{?name,label}",
    "html_url": "https://github.com/kubernetes/heapster/releases/tag/v0.16.1",
    "id": 1629483,
    "tag_name": "v0.16.1",
    "target_commitish": "release-0.16.0",
    "name": "Heapster release v0.16.1",
    "draft": false,
    "author": {
      "login": "vishh",
      "id": 7063592,
      "avatar_url": "https://avatars1.githubusercontent.com/u/7063592?v=3",
      "gravatar_id": "",
      "url": "https://api.github.com/users/vishh",
      "html_url": "https://github.com/vishh",
      "followers_url": "https://api.github.com/users/vishh/followers",
      "following_url": "https://api.github.com/users/vishh/following{/other_user}",
      "gists_url": "https://api.github.com/users/vishh/gists{/gist_id}",
      "starred_url": "https://api.github.com/users/vishh/starred{/owner}{/repo}",
      "subscriptions_url": "https://api.github.com/users/vishh/subscriptions",
      "organizations_url": "https://api.github.com/users/vishh/orgs",
      "repos_url": "https://api.github.com/users/vishh/repos",
      "events_url": "https://api.github.com/users/vishh/events{/privacy}",
      "received_events_url": "https://api.github.com/users/vishh/received_events",
      "type": "User",
      "site_admin": false
    },
    "prerelease": false,
    "created_at": "2015-08-05T02:19:20Z",
    "published_at": "2015-08-05T02:40:03Z",
    "assets": [

    ],
    "tarball_url": "https://api.github.com/repos/kubernetes/heapster/tarball/v0.16.1",
    "zipball_url": "https://api.github.com/repos/kubernetes/heapster/zipball/v0.16.1",
    "body": "Changes:\n- Return latest metric via `metric-export` API.\n- Garbage collect elements from the cache. \n\n| binary | hash alg | hash |\n| --- | --- | --- |\n| `heapster` | md5 | `9d3efb24423784bad295cb8d7841eb31` |\n| `heapster` | sha1 | `ae0fca38c6b64a2d8aae97ad5bde7e8a02ae5417` |\n"
  },
  {
    "url": "https://api.github.com/repos/kubernetes/heapster/releases/1604692",
    "assets_url": "https://api.github.com/repos/kubernetes/heapster/releases/1604692/assets",
    "upload_url": "https://uploads.github.com/repos/kubernetes/heapster/releases/1604692/assets{?name,label}",
    "html_url": "https://github.com/kubernetes/heapster/releases/tag/v0.17.0",
    "id": 1604692,
    "tag_name": "v0.17.0",
    "target_commitish": "master",
    "name": "Heapster v0.17.0",
    "draft": false,
    "author": {
      "login": "vishh",
      "id": 7063592,
      "avatar_url": "https://avatars1.githubusercontent.com/u/7063592?v=3",
      "gravatar_id": "",
      "url": "https://api.github.com/users/vishh",
      "html_url": "https://github.com/vishh",
      "followers_url": "https://api.github.com/users/vishh/followers",
      "following_url": "https://api.github.com/users/vishh/following{/other_user}",
      "gists_url": "https://api.github.com/users/vishh/gists{/gist_id}",
      "starred_url": "https://api.github.com/users/vishh/starred{/owner}{/repo}",
      "subscriptions_url": "https://api.github.com/users/vishh/subscriptions",
      "organizations_url": "https://api.github.com/users/vishh/orgs",
      "repos_url": "https://api.github.com/users/vishh/repos",
      "events_url": "https://api.github.com/users/vishh/events{/privacy}",
      "received_events_url": "https://api.github.com/users/vishh/received_events",
      "type": "User",
      "site_admin": false
    },
    "prerelease": false,
    "created_at": "2015-07-29T21:08:42Z",
    "published_at": "2015-07-29T23:06:39Z",
    "assets": [
      {
        "url": "https://api.github.com/repos/kubernetes/heapster/releases/assets/754314",
        "id": 754314,
        "name": "heapster",
        "label": null,
        "uploader": {
          "login": "vishh",
          "id": 7063592,
          "avatar_url": "https://avatars1.githubusercontent.com/u/7063592?v=3",
          "gravatar_id": "",
          "url": "https://api.github.com/users/vishh",
          "html_url": "https://github.com/vishh",
          "followers_url": "https://api.github.com/users/vishh/followers",
          "following_url": "https://api.github.com/users/vishh/following{/other_user}",
          "gists_url": "https://api.github.com/users/vishh/gists{/gist_id}",
          "starred_url": "https://api.github.com/users/vishh/starred{/owner}{/repo}",
          "subscriptions_url": "https://api.github.com/users/vishh/subscriptions",
          "organizations_url": "https://api.github.com/users/vishh/orgs",
          "repos_url": "https://api.github.com/users/vishh/repos",
          "events_url": "https://api.github.com/users/vishh/events{/privacy}",
          "received_events_url": "https://api.github.com/users/vishh/received_events",
          "type": "User",
          "site_admin": false
        },
        "content_type": "application/octet-stream",
        "state": "uploaded",
        "size": 20027760,
        "download_count": 40,
        "created_at": "2015-07-29T23:06:23Z",
        "updated_at": "2015-07-29T23:06:25Z",
        "browser_download_url": "https://github.com/kubernetes/heapster/releases/download/v0.17.0/heapster"
      }
    ],
    "tarball_url": "https://api.github.com/repos/kubernetes/heapster/tarball/v0.17.0",
    "zipball_url": "https://api.github.com/repos/kubernetes/heapster/zipball/v0.17.0",
    "body": "Changes:\n- Fix service account handling\n- New REST APIs for getting insight into the cluster.\n\n| binary | hash alg | hash |\n| --- | --- | --- |\n| `heapster` | md5 | `204b4d221a820ce8fa8430b6fc91d76a` |\n| `heapster` | sha1 | `1575f799d5ce087eb5f50d85d5e8c36900681dba` |\n"
  },
  {
    "url": "https://api.github.com/repos/kubernetes/heapster/releases/1507731",
    "assets_url": "https://api.github.com/repos/kubernetes/heapster/releases/1507731/assets",
    "upload_url": "https://uploads.github.com/repos/kubernetes/heapster/releases/1507731/assets{?name,label}",
    "html_url": "https://github.com/kubernetes/heapster/releases/tag/v0.16.0",
    "id": 1507731,
    "tag_name": "v0.16.0",
    "target_commitish": "master",
    "name": "Heapster release v0.16.0",
    "draft": false,
    "author": {
      "login": "rjnagal",
      "id": 5420489,
      "avatar_url": "https://avatars1.githubusercontent.com/u/5420489?v=3",
      "gravatar_id": "",
      "url": "https://api.github.com/users/rjnagal",
      "html_url": "https://github.com/rjnagal",
      "followers_url": "https://api.github.com/users/rjnagal/followers",
      "following_url": "https://api.github.com/users/rjnagal/following{/other_user}",
      "gists_url": "https://api.github.com/users/rjnagal/gists{/gist_id}",
      "starred_url": "https://api.github.com/users/rjnagal/starred{/owner}{/repo}",
      "subscriptions_url": "https://api.github.com/users/rjnagal/subscriptions",
      "organizations_url": "https://api.github.com/users/rjnagal/orgs",
      "repos_url": "https://api.github.com/users/rjnagal/repos",
      "events_url": "https://api.github.com/users/rjnagal/events{/privacy}",
      "received_events_url": "https://api.github.com/users/rjnagal/received_events",
      "type": "User",
      "site_admin": false
    },
    "prerelease": false,
    "created_at": "2015-07-07T22:03:53Z",
    "published_at": "2015-07-07T22:18:24Z",
    "assets": [
      {
        "url": "https://api.github.com/repos/kubernetes/heapster/releases/assets/691833",
        "id": 691833,
        "name": "heapster",
        "label": null,
        "uploader": {
          "login": "rjnagal",
          "id": 5420489,
          "avatar_url": "https://avatars1.githubusercontent.com/u/5420489?v=3",
          "gravatar_id": "",
          "url": "https://api.github.com/users/rjnagal",
          "html_url": "https://github.com/rjnagal",
          "followers_url": "https://api.github.com/users/rjnagal/followers",
          "following_url": "https://api.github.com/users/rjnagal/following{/other_user}",
          "gists_url": "https://api.github.com/users/rjnagal/gists{/gist_id}",
          "starred_url": "https://api.github.com/users/rjnagal/starred{/owner}{/repo}",
          "subscriptions_url": "https://api.github.com/users/rjnagal/subscriptions",
          "organizations_url": "https://api.github.com/users/rjnagal/orgs",
          "repos_url": "https://api.github.com/users/rjnagal/repos",
          "events_url": "https://api.github.com/users/rjnagal/events{/privacy}",
          "received_events_url": "https://api.github.com/users/rjnagal/received_events",
          "type": "User",
          "site_admin": false
        },
        "content_type": "application/octet-stream",
        "state": "uploaded",
        "size": 19542688,
        "download_count": 208,
        "created_at": "2015-07-07T22:18:16Z",
        "updated_at": "2015-07-07T22:18:22Z",
        "browser_download_url": "https://github.com/kubernetes/heapster/releases/download/v0.16.0/heapster"
      }
    ],
    "tarball_url": "https://api.github.com/repos/kubernetes/heapster/tarball/v0.16.0",
    "zipball_url": "https://api.github.com/repos/kubernetes/heapster/zipball/v0.16.0",
    "body": "Changes:\n- Use kubernetes v1.0 API\n- Add a new sink for GCM autoscaler.\n\n| binary | hash alg | hash |\n| --- | --- | --- |\n| `heapster` | md5 | `b6b8edc2b18dc901b9114534aca0ee61` |\n| `heapster` | sha1 | `1a817e3a97c2a33fdec52e7743eef1590e085ff2` |\n"
  },
  {
    "url": "https://api.github.com/repos/kubernetes/heapster/releases/1467597",
    "assets_url": "https://api.github.com/repos/kubernetes/heapster/releases/1467597/assets",
    "upload_url": "https://uploads.github.com/repos/kubernetes/heapster/releases/1467597/assets{?name,label}",
    "html_url": "https://github.com/kubernetes/heapster/releases/tag/v0.15.0",
    "id": 1467597,
    "tag_name": "v0.15.0",
    "target_commitish": "master",
    "name": "Heapster release v0.15.0",
    "draft": false,
    "author": {
      "login": "vishh",
      "id": 7063592,
      "avatar_url": "https://avatars1.githubusercontent.com/u/7063592?v=3",
      "gravatar_id": "",
      "url": "https://api.github.com/users/vishh",
      "html_url": "https://github.com/vishh",
      "followers_url": "https://api.github.com/users/vishh/followers",
      "following_url": "https://api.github.com/users/vishh/following{/other_user}",
      "gists_url": "https://api.github.com/users/vishh/gists{/gist_id}",
      "starred_url": "https://api.github.com/users/vishh/starred{/owner}{/repo}",
      "subscriptions_url": "https://api.github.com/users/vishh/subscriptions",
      "organizations_url": "https://api.github.com/users/vishh/orgs",
      "repos_url": "https://api.github.com/users/vishh/repos",
      "events_url": "https://api.github.com/users/vishh/events{/privacy}",
      "received_events_url": "https://api.github.com/users/vishh/received_events",
      "type": "User",
      "site_admin": false
    },
    "prerelease": false,
    "created_at": "2015-06-26T22:03:44Z",
    "published_at": "2015-06-26T22:25:46Z",
    "assets": [
      {
        "url": "https://api.github.com/repos/kubernetes/heapster/releases/assets/670427",
        "id": 670427,
        "name": "heapster",
        "label": null,
        "uploader": {
          "login": "vishh",
          "id": 7063592,
          "avatar_url": "https://avatars1.githubusercontent.com/u/7063592?v=3",
          "gravatar_id": "",
          "url": "https://api.github.com/users/vishh",
          "html_url": "https://github.com/vishh",
          "followers_url": "https://api.github.com/users/vishh/followers",
          "following_url": "https://api.github.com/users/vishh/following{/other_user}",
          "gists_url": "https://api.github.com/users/vishh/gists{/gist_id}",
          "starred_url": "https://api.github.com/users/vishh/starred{/owner}{/repo}",
          "subscriptions_url": "https://api.github.com/users/vishh/subscriptions",
          "organizations_url": "https://api.github.com/users/vishh/orgs",
          "repos_url": "https://api.github.com/users/vishh/repos",
          "events_url": "https://api.github.com/users/vishh/events{/privacy}",
          "received_events_url": "https://api.github.com/users/vishh/received_events",
          "type": "User",
          "site_admin": false
        },
        "content_type": "application/octet-stream",
        "state": "uploaded",
        "size": 19445200,
        "download_count": 29,
        "created_at": "2015-06-26T22:25:29Z",
        "updated_at": "2015-06-26T22:25:34Z",
        "browser_download_url": "https://github.com/kubernetes/heapster/releases/download/v0.15.0/heapster"
      }
    ],
    "tarball_url": "https://api.github.com/repos/kubernetes/heapster/tarball/v0.15.0",
    "zipball_url": "https://api.github.com/repos/kubernetes/heapster/zipball/v0.15.0",
    "body": "Changes:\n- Use service accounts in kubernetes clusters. Requires Kubernetes versions >= v0.20.0\n- Expose kubernetes system containers with standard names.\n\n| binary | hash alg | hash |\n| --- | --- | --- |\n| `heapster` | md5 | `81d8768d879befe7f8d0b46d7fb6fda5` |\n| `heapster` | sha1 | `403d6e3961428c226fa41bcedbd2ead71bb28e5e` |\n"
  },
  {
    "url": "https://api.github.com/repos/kubernetes/heapster/releases/1438918",
    "assets_url": "https://api.github.com/repos/kubernetes/heapster/releases/1438918/assets",
    "upload_url": "https://uploads.github.com/repos/kubernetes/heapster/releases/1438918/assets{?name,label}",
    "html_url": "https://github.com/kubernetes/heapster/releases/tag/v0.14.3",
    "id": 1438918,
    "tag_name": "v0.14.3",
    "target_commitish": "releases-v0.14",
    "name": "Heapster release v0.14.3",
    "draft": false,
    "author": {
      "login": "vishh",
      "id": 7063592,
      "avatar_url": "https://avatars1.githubusercontent.com/u/7063592?v=3",
      "gravatar_id": "",
      "url": "https://api.github.com/users/vishh",
      "html_url": "https://github.com/vishh",
      "followers_url": "https://api.github.com/users/vishh/followers",
      "following_url": "https://api.github.com/users/vishh/following{/other_user}",
      "gists_url": "https://api.github.com/users/vishh/gists{/gist_id}",
      "starred_url": "https://api.github.com/users/vishh/starred{/owner}{/repo}",
      "subscriptions_url": "https://api.github.com/users/vishh/subscriptions",
      "organizations_url": "https://api.github.com/users/vishh/orgs",
      "repos_url": "https://api.github.com/users/vishh/repos",
      "events_url": "https://api.github.com/users/vishh/events{/privacy}",
      "received_events_url": "https://api.github.com/users/vishh/received_events",
      "type": "User",
      "site_admin": false
    },
    "prerelease": false,
    "created_at": "2015-06-19T18:33:26Z",
    "published_at": "2015-06-19T18:46:26Z",
    "assets": [
      {
        "url": "https://api.github.com/repos/kubernetes/heapster/releases/assets/655955",
        "id": 655955,
        "name": "heapster",
        "label": null,
        "uploader": {
          "login": "vishh",
          "id": 7063592,
          "avatar_url": "https://avatars1.githubusercontent.com/u/7063592?v=3",
          "gravatar_id": "",
          "url": "https://api.github.com/users/vishh",
          "html_url": "https://github.com/vishh",
          "followers_url": "https://api.github.com/users/vishh/followers",
          "following_url": "https://api.github.com/users/vishh/following{/other_user}",
          "gists_url": "https://api.github.com/users/vishh/gists{/gist_id}",
          "starred_url": "https://api.github.com/users/vishh/starred{/owner}{/repo}",
          "subscriptions_url": "https://api.github.com/users/vishh/subscriptions",
          "organizations_url": "https://api.github.com/users/vishh/orgs",
          "repos_url": "https://api.github.com/users/vishh/repos",
          "events_url": "https://api.github.com/users/vishh/events{/privacy}",
          "received_events_url": "https://api.github.com/users/vishh/received_events",
          "type": "User",
          "site_admin": false
        },
        "content_type": "application/octet-stream",
        "state": "uploaded",
        "size": 19516264,
        "download_count": 6,
        "created_at": "2015-06-19T18:46:19Z",
        "updated_at": "2015-06-19T18:46:22Z",
        "browser_download_url": "https://github.com/kubernetes/heapster/releases/download/v0.14.3/heapster"
      }
    ],
    "tarball_url": "https://api.github.com/repos/kubernetes/heapster/tarball/v0.14.3",
    "zipball_url": "https://api.github.com/repos/kubernetes/heapster/zipball/v0.14.3",
    "body": "Changes:\n- Expose \"host_id\" label for node metrics.\n- Expose a REST endpoint '/metric-export-schema' that contains the schema for '/metric-export' API.\n\n| binary | hash alg | hash |\n| --- | --- | --- |\n| `heapster` | md5 | `20e47edec4e095fdf88225f28dc77a9f` |\n| `heapster` | sha1 | `24c8f0395681f0ffe365cb7efed470700885d1fc` |\n"
  },
  {
    "url": "https://api.github.com/repos/kubernetes/heapster/releases/1425085",
    "assets_url": "https://api.github.com/repos/kubernetes/heapster/releases/1425085/assets",
    "upload_url": "https://uploads.github.com/repos/kubernetes/heapster/releases/1425085/assets{?name,label}",
    "html_url": "https://github.com/kubernetes/heapster/releases/tag/v0.14.2",
    "id": 1425085,
    "tag_name": "v0.14.2",
    "target_commitish": "master",
    "name": "Heapster release v0.14.2",
    "draft": false,
    "author": {
      "login": "vishh",
      "id": 7063592,
      "avatar_url": "https://avatars1.githubusercontent.com/u/7063592?v=3",
      "gravatar_id": "",
      "url": "https://api.github.com/users/vishh",
      "html_url": "https://github.com/vishh",
      "followers_url": "https://api.github.com/users/vishh/followers",
      "following_url": "https://api.github.com/users/vishh/following{/other_user}",
      "gists_url": "https://api.github.com/users/vishh/gists{/gist_id}",
      "starred_url": "https://api.github.com/users/vishh/starred{/owner}{/repo}",
      "subscriptions_url": "https://api.github.com/users/vishh/subscriptions",
      "organizations_url": "https://api.github.com/users/vishh/orgs",
      "repos_url": "https://api.github.com/users/vishh/repos",
      "events_url": "https://api.github.com/users/vishh/events{/privacy}",
      "received_events_url": "https://api.github.com/users/vishh/received_events",
      "type": "User",
      "site_admin": false
    },
    "prerelease": false,
    "created_at": "2015-06-17T00:20:56Z",
    "published_at": "2015-06-17T00:21:19Z",
    "assets": [
      {
        "url": "https://api.github.com/repos/kubernetes/heapster/releases/assets/649012",
        "id": 649012,
        "name": "heapster",
        "label": null,
        "uploader": {
          "login": "vishh",
          "id": 7063592,
          "avatar_url": "https://avatars1.githubusercontent.com/u/7063592?v=3",
          "gravatar_id": "",
          "url": "https://api.github.com/users/vishh",
          "html_url": "https://github.com/vishh",
          "followers_url": "https://api.github.com/users/vishh/followers",
          "following_url": "https://api.github.com/users/vishh/following{/other_user}",
          "gists_url": "https://api.github.com/users/vishh/gists{/gist_id}",
          "starred_url": "https://api.github.com/users/vishh/starred{/owner}{/repo}",
          "subscriptions_url": "https://api.github.com/users/vishh/subscriptions",
          "organizations_url": "https://api.github.com/users/vishh/orgs",
          "repos_url": "https://api.github.com/users/vishh/repos",
          "events_url": "https://api.github.com/users/vishh/events{/privacy}",
          "received_events_url": "https://api.github.com/users/vishh/received_events",
          "type": "User",
          "site_admin": false
        },
        "content_type": "application/octet-stream",
        "state": "uploaded",
        "size": 19482712,
        "download_count": 196,
        "created_at": "2015-06-17T00:18:32Z",
        "updated_at": "2015-06-17T00:18:34Z",
        "browser_download_url": "https://github.com/kubernetes/heapster/releases/download/v0.14.2/heapster"
      }
    ],
    "tarball_url": "https://api.github.com/repos/kubernetes/heapster/tarball/v0.14.2",
    "zipball_url": "https://api.github.com/repos/kubernetes/heapster/zipball/v0.14.2",
    "body": "Changes:\n- Expose \"host_id\" label reliably for all metrics.\n\n| binary | hash alg | hash |\n| --- | --- | --- |\n| `heapster` | md5 | `ede13c5a1d83e2dbc1335ad5ca838feb` |\n| `heapster` | sha1 | `fc1646d5e181df02b485aaa2adeec7d7288b7cc7` |\n"
  },
  {
    "url": "https://api.github.com/repos/kubernetes/heapster/releases/1419893",
    "assets_url": "https://api.github.com/repos/kubernetes/heapster/releases/1419893/assets",
    "upload_url": "https://uploads.github.com/repos/kubernetes/heapster/releases/1419893/assets{?name,label}",
    "html_url": "https://github.com/kubernetes/heapster/releases/tag/0.14.1",
    "id": 1419893,
    "tag_name": "0.14.1",
    "target_commitish": "master",
    "name": "Heapster release v0.14.1",
    "draft": false,
    "author": {
      "login": "vishh",
      "id": 7063592,
      "avatar_url": "https://avatars1.githubusercontent.com/u/7063592?v=3",
      "gravatar_id": "",
      "url": "https://api.github.com/users/vishh",
      "html_url": "https://github.com/vishh",
      "followers_url": "https://api.github.com/users/vishh/followers",
      "following_url": "https://api.github.com/users/vishh/following{/other_user}",
      "gists_url": "https://api.github.com/users/vishh/gists{/gist_id}",
      "starred_url": "https://api.github.com/users/vishh/starred{/owner}{/repo}",
      "subscriptions_url": "https://api.github.com/users/vishh/subscriptions",
      "organizations_url": "https://api.github.com/users/vishh/orgs",
      "repos_url": "https://api.github.com/users/vishh/repos",
      "events_url": "https://api.github.com/users/vishh/events{/privacy}",
      "received_events_url": "https://api.github.com/users/vishh/received_events",
      "type": "User",
      "site_admin": false
    },
    "prerelease": false,
    "created_at": "2015-06-16T17:30:04Z",
    "published_at": "2015-06-16T18:21:41Z",
    "assets": [
      {
        "url": "https://api.github.com/repos/kubernetes/heapster/releases/assets/648417",
        "id": 648417,
        "name": "heapster",
        "label": null,
        "uploader": {
          "login": "vishh",
          "id": 7063592,
          "avatar_url": "https://avatars1.githubusercontent.com/u/7063592?v=3",
          "gravatar_id": "",
          "url": "https://api.github.com/users/vishh",
          "html_url": "https://github.com/vishh",
          "followers_url": "https://api.github.com/users/vishh/followers",
          "following_url": "https://api.github.com/users/vishh/following{/other_user}",
          "gists_url": "https://api.github.com/users/vishh/gists{/gist_id}",
          "starred_url": "https://api.github.com/users/vishh/starred{/owner}{/repo}",
          "subscriptions_url": "https://api.github.com/users/vishh/subscriptions",
          "organizations_url": "https://api.github.com/users/vishh/orgs",
          "repos_url": "https://api.github.com/users/vishh/repos",
          "events_url": "https://api.github.com/users/vishh/events{/privacy}",
          "received_events_url": "https://api.github.com/users/vishh/received_events",
          "type": "User",
          "site_admin": false
        },
        "content_type": "application/octet-stream",
        "state": "uploaded",
        "size": 19482720,
        "download_count": 0,
        "created_at": "2015-06-16T18:21:16Z",
        "updated_at": "2015-06-16T18:21:18Z",
        "browser_download_url": "https://github.com/kubernetes/heapster/releases/download/0.14.1/heapster"
      }
    ],
    "tarball_url": "https://api.github.com/repos/kubernetes/heapster/tarball/0.14.1",
    "zipball_url": "https://api.github.com/repos/kubernetes/heapster/zipball/0.14.1",
    "body": "Changes:\n- Expose Namespace ID as a label \"namespace_id\"\n- Expose External ID of nodes as a label \"external_id\"\n- Expose metric specific labels via the API\n\n| binary | hash alg | hash |\n| --- | --- | --- |\n| `heapster` | md5 | `5f1592a6fa7f06252cbc40649756aea4` |\n| `heapster` | sha1 | `2cf0bea8eb3becd6972915cd72d41bb05e9b129d` |\n"
  },
  {
    "url": "https://api.github.com/repos/kubernetes/heapster/releases/1396578",
    "assets_url": "https://api.github.com/repos/kubernetes/heapster/releases/1396578/assets",
    "upload_url": "https://uploads.github.com/repos/kubernetes/heapster/releases/1396578/assets{?name,label}",
    "html_url": "https://github.com/kubernetes/heapster/releases/tag/v0.14.0",
    "id": 1396578,
    "tag_name": "v0.14.0",
    "target_commitish": "master",
    "name": "Heapster release v0.14.0",
    "draft": false,
    "author": {
      "login": "vishh",
      "id": 7063592,
      "avatar_url": "https://avatars1.githubusercontent.com/u/7063592?v=3",
      "gravatar_id": "",
      "url": "https://api.github.com/users/vishh",
      "html_url": "https://github.com/vishh",
      "followers_url": "https://api.github.com/users/vishh/followers",
      "following_url": "https://api.github.com/users/vishh/following{/other_user}",
      "gists_url": "https://api.github.com/users/vishh/gists{/gist_id}",
      "starred_url": "https://api.github.com/users/vishh/starred{/owner}{/repo}",
      "subscriptions_url": "https://api.github.com/users/vishh/subscriptions",
      "organizations_url": "https://api.github.com/users/vishh/orgs",
      "repos_url": "https://api.github.com/users/vishh/repos",
      "events_url": "https://api.github.com/users/vishh/events{/privacy}",
      "received_events_url": "https://api.github.com/users/vishh/received_events",
      "type": "User",
      "site_admin": false
    },
    "prerelease": false,
    "created_at": "2015-06-10T19:35:20Z",
    "published_at": "2015-06-10T22:08:59Z",
    "assets": [
      {
        "url": "https://api.github.com/repos/kubernetes/heapster/releases/assets/632684",
        "id": 632684,
        "name": "heapster",
        "label": null,
        "uploader": {
          "login": "vishh",
          "id": 7063592,
          "avatar_url": "https://avatars1.githubusercontent.com/u/7063592?v=3",
          "gravatar_id": "",
          "url": "https://api.github.com/users/vishh",
          "html_url": "https://github.com/vishh",
          "followers_url": "https://api.github.com/users/vishh/followers",
          "following_url": "https://api.github.com/users/vishh/following{/other_user}",
          "gists_url": "https://api.github.com/users/vishh/gists{/gist_id}",
          "starred_url": "https://api.github.com/users/vishh/starred{/owner}{/repo}",
          "subscriptions_url": "https://api.github.com/users/vishh/subscriptions",
          "organizations_url": "https://api.github.com/users/vishh/orgs",
          "repos_url": "https://api.github.com/users/vishh/repos",
          "events_url": "https://api.github.com/users/vishh/events{/privacy}",
          "received_events_url": "https://api.github.com/users/vishh/received_events",
          "type": "User",
          "site_admin": false
        },
        "content_type": "application/octet-stream",
        "state": "uploaded",
        "size": 17129576,
        "download_count": 7,
        "created_at": "2015-06-10T00:19:24Z",
        "updated_at": "2015-06-10T00:19:26Z",
        "browser_download_url": "https://github.com/kubernetes/heapster/releases/download/v0.14.0/heapster"
      }
    ],
    "tarball_url": "https://api.github.com/repos/kubernetes/heapster/tarball/v0.14.0",
    "zipball_url": "https://api.github.com/repos/kubernetes/heapster/zipball/v0.14.0",
    "body": "Changes:\n- Expose a REST endpoints that exposes metrics.\n- Support for service accounts.\n\n| binary | hash alg | hash |\n| --- | --- | --- |\n| `heapster` | md5 | `98246e635512e1cf4414cab14c96fb4f` |\n| `heapster` | sha1 | `b40367a9793030436efb051c06562be2bb2112be` |\n"
  },
  {
    "url": "https://api.github.com/repos/kubernetes/heapster/releases/1354894",
    "assets_url": "https://api.github.com/repos/kubernetes/heapster/releases/1354894/assets",
    "upload_url": "https://uploads.github.com/repos/kubernetes/heapster/releases/1354894/assets{?name,label}",
    "html_url": "https://github.com/kubernetes/heapster/releases/tag/v0.13.0",
    "id": 1354894,
    "tag_name": "v0.13.0",
    "target_commitish": "master",
    "name": "Heapster release v0.13.0",
    "draft": false,
    "author": {
      "login": "vmarmol",
      "id": 985208,
      "avatar_url": "https://avatars2.githubusercontent.com/u/985208?v=3",
      "gravatar_id": "",
      "url": "https://api.github.com/users/vmarmol",
      "html_url": "https://github.com/vmarmol",
      "followers_url": "https://api.github.com/users/vmarmol/followers",
      "following_url": "https://api.github.com/users/vmarmol/following{/other_user}",
      "gists_url": "https://api.github.com/users/vmarmol/gists{/gist_id}",
      "starred_url": "https://api.github.com/users/vmarmol/starred{/owner}{/repo}",
      "subscriptions_url": "https://api.github.com/users/vmarmol/subscriptions",
      "organizations_url": "https://api.github.com/users/vmarmol/orgs",
      "repos_url": "https://api.github.com/users/vmarmol/repos",
      "events_url": "https://api.github.com/users/vmarmol/events{/privacy}",
      "received_events_url": "https://api.github.com/users/vmarmol/received_events",
      "type": "User",
      "site_admin": false
    },
    "prerelease": false,
    "created_at": "2015-05-29T21:18:12Z",
    "published_at": "2015-05-29T21:20:28Z",
    "assets": [
      {
        "url": "https://api.github.com/repos/kubernetes/heapster/releases/assets/609174",
        "id": 609174,
        "name": "heapster",
        "label": null,
        "uploader": {
          "login": "vmarmol",
          "id": 985208,
          "avatar_url": "https://avatars2.githubusercontent.com/u/985208?v=3",
          "gravatar_id": "",
          "url": "https://api.github.com/users/vmarmol",
          "html_url": "https://github.com/vmarmol",
          "followers_url": "https://api.github.com/users/vmarmol/followers",
          "following_url": "https://api.github.com/users/vmarmol/following{/other_user}",
          "gists_url": "https://api.github.com/users/vmarmol/gists{/gist_id}",
          "starred_url": "https://api.github.com/users/vmarmol/starred{/owner}{/repo}",
          "subscriptions_url": "https://api.github.com/users/vmarmol/subscriptions",
          "organizations_url": "https://api.github.com/users/vmarmol/orgs",
          "repos_url": "https://api.github.com/users/vmarmol/repos",
          "events_url": "https://api.github.com/users/vmarmol/events{/privacy}",
          "received_events_url": "https://api.github.com/users/vmarmol/received_events",
          "type": "User",
          "site_admin": false
        },
        "content_type": "application/octet-stream",
        "state": "uploaded",
        "size": 15062224,
        "download_count": 9,
        "created_at": "2015-05-29T21:19:30Z",
        "updated_at": "2015-05-29T21:19:33Z",
        "browser_download_url": "https://github.com/kubernetes/heapster/releases/download/v0.13.0/heapster"
      }
    ],
    "tarball_url": "https://api.github.com/repos/kubernetes/heapster/tarball/v0.13.0",
    "zipball_url": "https://api.github.com/repos/kubernetes/heapster/zipball/v0.13.0",
    "body": "Changes:\n- Switch use of Kubernetes API to v1beta3.\n- Add option to connect to Kubelets through HTTPS.\n\n| binary | hash alg | hash |\n| --- | --- | --- |\n| `heapster` | md5 | `d1931afc46199f7d8b0681f54c19c76a` |\n| `heapster` | sha1 | `ff2d8d546982faed44b583c00156a4080c41ec67` |\n"
  },
  {
    "url": "https://api.github.com/repos/kubernetes/heapster/releases/1297238",
    "assets_url": "https://api.github.com/repos/kubernetes/heapster/releases/1297238/assets",
    "upload_url": "https://uploads.github.com/repos/kubernetes/heapster/releases/1297238/assets{?name,label}",
    "html_url": "https://github.com/kubernetes/heapster/releases/tag/v0.12.1",
    "id": 1297238,
    "tag_name": "v0.12.1",
    "target_commitish": "master",
    "name": "Heapster release v0.12.1",
    "draft": false,
    "author": {
      "login": "vishh",
      "id": 7063592,
      "avatar_url": "https://avatars1.githubusercontent.com/u/7063592?v=3",
      "gravatar_id": "",
      "url": "https://api.github.com/users/vishh",
      "html_url": "https://github.com/vishh",
      "followers_url": "https://api.github.com/users/vishh/followers",
      "following_url": "https://api.github.com/users/vishh/following{/other_user}",
      "gists_url": "https://api.github.com/users/vishh/gists{/gist_id}",
      "starred_url": "https://api.github.com/users/vishh/starred{/owner}{/repo}",
      "subscriptions_url": "https://api.github.com/users/vishh/subscriptions",
      "organizations_url": "https://api.github.com/users/vishh/orgs",
      "repos_url": "https://api.github.com/users/vishh/repos",
      "events_url": "https://api.github.com/users/vishh/events{/privacy}",
      "received_events_url": "https://api.github.com/users/vishh/received_events",
      "type": "User",
      "site_admin": false
    },
    "prerelease": false,
    "created_at": "2015-05-14T16:47:38Z",
    "published_at": "2015-05-14T17:11:03Z",
    "assets": [
      {
        "url": "https://api.github.com/repos/kubernetes/heapster/releases/assets/581954",
        "id": 581954,
        "name": "heapster",
        "label": null,
        "uploader": {
          "login": "vishh",
          "id": 7063592,
          "avatar_url": "https://avatars1.githubusercontent.com/u/7063592?v=3",
          "gravatar_id": "",
          "url": "https://api.github.com/users/vishh",
          "html_url": "https://github.com/vishh",
          "followers_url": "https://api.github.com/users/vishh/followers",
          "following_url": "https://api.github.com/users/vishh/following{/other_user}",
          "gists_url": "https://api.github.com/users/vishh/gists{/gist_id}",
          "starred_url": "https://api.github.com/users/vishh/starred{/owner}{/repo}",
          "subscriptions_url": "https://api.github.com/users/vishh/subscriptions",
          "organizations_url": "https://api.github.com/users/vishh/orgs",
          "repos_url": "https://api.github.com/users/vishh/repos",
          "events_url": "https://api.github.com/users/vishh/events{/privacy}",
          "received_events_url": "https://api.github.com/users/vishh/received_events",
          "type": "User",
          "site_admin": false
        },
        "content_type": "application/octet-stream",
        "state": "uploaded",
        "size": 15052024,
        "download_count": 40,
        "created_at": "2015-05-14T17:10:32Z",
        "updated_at": "2015-05-14T17:10:36Z",
        "browser_download_url": "https://github.com/kubernetes/heapster/releases/download/v0.12.1/heapster"
      }
    ],
    "tarball_url": "https://api.github.com/repos/kubernetes/heapster/tarball/v0.12.1",
    "zipball_url": "https://api.github.com/repos/kubernetes/heapster/zipball/v0.12.1",
    "body": "Changes:\n- Fixes kube master url handling via --source flag.\n\n| binary | hash alg | hash |\n| --- | --- | --- |\n| `heapster` | md5 | `7c5cb6c635653678c28f000d1f3bc1b1` |\n| `heapster` | sha1 | `ba835b535753373d1b495f7392fa907d8bf217e2` |\n"
  },
  {
    "url": "https://api.github.com/repos/kubernetes/heapster/releases/1289174",
    "assets_url": "https://api.github.com/repos/kubernetes/heapster/releases/1289174/assets",
    "upload_url": "https://uploads.github.com/repos/kubernetes/heapster/releases/1289174/assets{?name,label}",
    "html_url": "https://github.com/kubernetes/heapster/releases/tag/v0.12.0",
    "id": 1289174,
    "tag_name": "v0.12.0",
    "target_commitish": "master",
    "name": "Heapster release v0.12.0",
    "draft": false,
    "author": {
      "login": "vishh",
      "id": 7063592,
      "avatar_url": "https://avatars1.githubusercontent.com/u/7063592?v=3",
      "gravatar_id": "",
      "url": "https://api.github.com/users/vishh",
      "html_url": "https://github.com/vishh",
      "followers_url": "https://api.github.com/users/vishh/followers",
      "following_url": "https://api.github.com/users/vishh/following{/other_user}",
      "gists_url": "https://api.github.com/users/vishh/gists{/gist_id}",
      "starred_url": "https://api.github.com/users/vishh/starred{/owner}{/repo}",
      "subscriptions_url": "https://api.github.com/users/vishh/subscriptions",
      "organizations_url": "https://api.github.com/users/vishh/orgs",
      "repos_url": "https://api.github.com/users/vishh/repos",
      "events_url": "https://api.github.com/users/vishh/events{/privacy}",
      "received_events_url": "https://api.github.com/users/vishh/received_events",
      "type": "User",
      "site_admin": false
    },
    "prerelease": true,
    "created_at": "2015-05-12T20:15:04Z",
    "published_at": "2015-05-12T21:33:54Z",
    "assets": [
      {
        "url": "https://api.github.com/repos/kubernetes/heapster/releases/assets/578482",
        "id": 578482,
        "name": "heapster",
        "label": null,
        "uploader": {
          "login": "vishh",
          "id": 7063592,
          "avatar_url": "https://avatars1.githubusercontent.com/u/7063592?v=3",
          "gravatar_id": "",
          "url": "https://api.github.com/users/vishh",
          "html_url": "https://github.com/vishh",
          "followers_url": "https://api.github.com/users/vishh/followers",
          "following_url": "https://api.github.com/users/vishh/following{/other_user}",
          "gists_url": "https://api.github.com/users/vishh/gists{/gist_id}",
          "starred_url": "https://api.github.com/users/vishh/starred{/owner}{/repo}",
          "subscriptions_url": "https://api.github.com/users/vishh/subscriptions",
          "organizations_url": "https://api.github.com/users/vishh/orgs",
          "repos_url": "https://api.github.com/users/vishh/repos",
          "events_url": "https://api.github.com/users/vishh/events{/privacy}",
          "received_events_url": "https://api.github.com/users/vishh/received_events",
          "type": "User",
          "site_admin": false
        },
        "content_type": "application/octet-stream",
        "state": "uploaded",
        "size": 15051992,
        "download_count": 10,
        "created_at": "2015-05-12T21:32:38Z",
        "updated_at": "2015-05-12T21:32:40Z",
        "browser_download_url": "https://github.com/kubernetes/heapster/releases/download/v0.12.0/heapster"
      }
    ],
    "tarball_url": "https://api.github.com/repos/kubernetes/heapster/tarball/v0.12.0",
    "zipball_url": "https://api.github.com/repos/kubernetes/heapster/zipball/v0.12.0",
    "body": "- Fixes issues related to supporting multiple sinks.\n- Resource usage of kubernetes system daemons are exported.\n- Support for kubernetes specific auth (secrets).\n- Scalability improvements.\n\n| binary | hash alg | hash |\n| --- | --- | --- |\n| `heapster` | md5 | `b306582938281c9b9ba86007991b30c3` |\n| `heapster` | sha1 | `3921d4cc262ea5dc8bc75abf0f845df126dabc2a` |\n"
  },
  {
    "url": "https://api.github.com/repos/kubernetes/heapster/releases/1230271",
    "assets_url": "https://api.github.com/repos/kubernetes/heapster/releases/1230271/assets",
    "upload_url": "https://uploads.github.com/repos/kubernetes/heapster/releases/1230271/assets{?name,label}",
    "html_url": "https://github.com/kubernetes/heapster/releases/tag/v0.11.0",
    "id": 1230271,
    "tag_name": "v0.11.0",
    "target_commitish": "master",
    "name": "Heapster v0.11.0 release",
    "draft": false,
    "author": {
      "login": "vishh",
      "id": 7063592,
      "avatar_url": "https://avatars1.githubusercontent.com/u/7063592?v=3",
      "gravatar_id": "",
      "url": "https://api.github.com/users/vishh",
      "html_url": "https://github.com/vishh",
      "followers_url": "https://api.github.com/users/vishh/followers",
      "following_url": "https://api.github.com/users/vishh/following{/other_user}",
      "gists_url": "https://api.github.com/users/vishh/gists{/gist_id}",
      "starred_url": "https://api.github.com/users/vishh/starred{/owner}{/repo}",
      "subscriptions_url": "https://api.github.com/users/vishh/subscriptions",
      "organizations_url": "https://api.github.com/users/vishh/orgs",
      "repos_url": "https://api.github.com/users/vishh/repos",
      "events_url": "https://api.github.com/users/vishh/events{/privacy}",
      "received_events_url": "https://api.github.com/users/vishh/received_events",
      "type": "User",
      "site_admin": false
    },
    "prerelease": false,
    "created_at": "2015-04-29T00:03:04Z",
    "published_at": "2015-04-29T00:28:57Z",
    "assets": [
      {
        "url": "https://api.github.com/repos/kubernetes/heapster/releases/assets/551101",
        "id": 551101,
        "name": "heapster",
        "label": null,
        "uploader": {
          "login": "vishh",
          "id": 7063592,
          "avatar_url": "https://avatars1.githubusercontent.com/u/7063592?v=3",
          "gravatar_id": "",
          "url": "https://api.github.com/users/vishh",
          "html_url": "https://github.com/vishh",
          "followers_url": "https://api.github.com/users/vishh/followers",
          "following_url": "https://api.github.com/users/vishh/following{/other_user}",
          "gists_url": "https://api.github.com/users/vishh/gists{/gist_id}",
          "starred_url": "https://api.github.com/users/vishh/starred{/owner}{/repo}",
          "subscriptions_url": "https://api.github.com/users/vishh/subscriptions",
          "organizations_url": "https://api.github.com/users/vishh/orgs",
          "repos_url": "https://api.github.com/users/vishh/repos",
          "events_url": "https://api.github.com/users/vishh/events{/privacy}",
          "received_events_url": "https://api.github.com/users/vishh/received_events",
          "type": "User",
          "site_admin": false
        },
        "content_type": "application/octet-stream",
        "state": "uploaded",
        "size": 14335600,
        "download_count": 25,
        "created_at": "2015-04-29T00:07:46Z",
        "updated_at": "2015-04-29T00:07:48Z",
        "browser_download_url": "https://github.com/kubernetes/heapster/releases/download/v0.11.0/heapster"
      }
    ],
    "tarball_url": "https://api.github.com/repos/kubernetes/heapster/tarball/v0.11.0",
    "zipball_url": "https://api.github.com/repos/kubernetes/heapster/zipball/v0.11.0",
    "body": "Features:\n- Export filesystem usage metrics for the node and containers.\n- Support for Kubernetes events\n- New Sink - Google Cloud Logging. Supports events only.\n- New Sink - Google Cloud Monitoring. Supports metrics only.\n- New metric labels - 'pod_name' and 'resource_id'.\n- Extensible source and sinks configuration. It is now possible to export metrics and events to multiple sinks simultaneously.\n\nGrafana v0.7 released with sample dashboard updates!\n\n| binary | hash alg | hash |\n| --- | --- | --- |\n| `heapster` | md5 | `95cdfa2fcdeb3f8c63c516231fea01bf` |\n| `heapster` | sha1 | `57ef95fa0823a1aa085adb63c876d3fb9bf7c184` |\n"
  },
  {
    "url": "https://api.github.com/repos/kubernetes/heapster/releases/1117683",
    "assets_url": "https://api.github.com/repos/kubernetes/heapster/releases/1117683/assets",
    "upload_url": "https://uploads.github.com/repos/kubernetes/heapster/releases/1117683/assets{?name,label}",
    "html_url": "https://github.com/kubernetes/heapster/releases/tag/v0.10.0",
    "id": 1117683,
    "tag_name": "v0.10.0",
    "target_commitish": "master",
    "name": "Heapster v0.10.0",
    "draft": false,
    "author": {
      "login": "vishh",
      "id": 7063592,
      "avatar_url": "https://avatars1.githubusercontent.com/u/7063592?v=3",
      "gravatar_id": "",
      "url": "https://api.github.com/users/vishh",
      "html_url": "https://github.com/vishh",
      "followers_url": "https://api.github.com/users/vishh/followers",
      "following_url": "https://api.github.com/users/vishh/following{/other_user}",
      "gists_url": "https://api.github.com/users/vishh/gists{/gist_id}",
      "starred_url": "https://api.github.com/users/vishh/starred{/owner}{/repo}",
      "subscriptions_url": "https://api.github.com/users/vishh/subscriptions",
      "organizations_url": "https://api.github.com/users/vishh/orgs",
      "repos_url": "https://api.github.com/users/vishh/repos",
      "events_url": "https://api.github.com/users/vishh/events{/privacy}",
      "received_events_url": "https://api.github.com/users/vishh/received_events",
      "type": "User",
      "site_admin": false
    },
    "prerelease": false,
    "created_at": "2015-04-01T23:45:50Z",
    "published_at": "2015-04-01T23:52:11Z",
    "assets": [
      {
        "url": "https://api.github.com/repos/kubernetes/heapster/releases/assets/502700",
        "id": 502700,
        "name": "heapster",
        "label": null,
        "uploader": {
          "login": "vishh",
          "id": 7063592,
          "avatar_url": "https://avatars1.githubusercontent.com/u/7063592?v=3",
          "gravatar_id": "",
          "url": "https://api.github.com/users/vishh",
          "html_url": "https://github.com/vishh",
          "followers_url": "https://api.github.com/users/vishh/followers",
          "following_url": "https://api.github.com/users/vishh/following{/other_user}",
          "gists_url": "https://api.github.com/users/vishh/gists{/gist_id}",
          "starred_url": "https://api.github.com/users/vishh/starred{/owner}{/repo}",
          "subscriptions_url": "https://api.github.com/users/vishh/subscriptions",
          "organizations_url": "https://api.github.com/users/vishh/orgs",
          "repos_url": "https://api.github.com/users/vishh/repos",
          "events_url": "https://api.github.com/users/vishh/events{/privacy}",
          "received_events_url": "https://api.github.com/users/vishh/received_events",
          "type": "User",
          "site_admin": false
        },
        "content_type": "application/octet-stream",
        "state": "uploaded",
        "size": 12986104,
        "download_count": 32,
        "created_at": "2015-04-01T23:49:58Z",
        "updated_at": "2015-04-01T23:50:00Z",
        "browser_download_url": "https://github.com/kubernetes/heapster/releases/download/v0.10.0/heapster"
      }
    ],
    "tarball_url": "https://api.github.com/repos/kubernetes/heapster/tarball/v0.10.0",
    "zipball_url": "https://api.github.com/repos/kubernetes/heapster/zipball/v0.10.0",
    "body": "### Release 0.10.0\n- Downsampling - Resolution of metrics is set to 5s by default.\n- Support for using Kube client auth.\n- Improved Influxdb sink - sequence numbers are generated for every metric.\n- Reliability improvements\n- Bug fixes.\n\n#### Grafana v0.6 release:\n- Switch to kuisp for serving files & proxying to services\n- Configurable reverse proxy directly to InfluxDB service rather than using\n  apiserver proxy\n\n| binary | hash alg | hash |\n| --- | --- | --- |\n| `heapster` | md5 | `06f93f6db243136d728187d000792d12` |\n| `heapster` | sha1 | `40cb19f28431907ea5a191a91abcc33ed21276b6` |\n"
  },
  {
    "url": "https://api.github.com/repos/kubernetes/heapster/releases/1049183",
    "assets_url": "https://api.github.com/repos/kubernetes/heapster/releases/1049183/assets",
    "upload_url": "https://uploads.github.com/repos/kubernetes/heapster/releases/1049183/assets{?name,label}",
    "html_url": "https://github.com/kubernetes/heapster/releases/tag/v0.9",
    "id": 1049183,
    "tag_name": "v0.9",
    "target_commitish": "master",
    "name": "Heapster v0.9",
    "draft": false,
    "author": {
      "login": "vishh",
      "id": 7063592,
      "avatar_url": "https://avatars1.githubusercontent.com/u/7063592?v=3",
      "gravatar_id": "",
      "url": "https://api.github.com/users/vishh",
      "html_url": "https://github.com/vishh",
      "followers_url": "https://api.github.com/users/vishh/followers",
      "following_url": "https://api.github.com/users/vishh/following{/other_user}",
      "gists_url": "https://api.github.com/users/vishh/gists{/gist_id}",
      "starred_url": "https://api.github.com/users/vishh/starred{/owner}{/repo}",
      "subscriptions_url": "https://api.github.com/users/vishh/subscriptions",
      "organizations_url": "https://api.github.com/users/vishh/orgs",
      "repos_url": "https://api.github.com/users/vishh/repos",
      "events_url": "https://api.github.com/users/vishh/events{/privacy}",
      "received_events_url": "https://api.github.com/users/vishh/received_events",
      "type": "User",
      "site_admin": false
    },
    "prerelease": false,
    "created_at": "2015-03-14T00:21:34Z",
    "published_at": "2015-03-14T01:40:07Z",
    "assets": [
      {
        "url": "https://api.github.com/repos/kubernetes/heapster/releases/assets/469694",
        "id": 469694,
        "name": "heapster",
        "label": null,
        "uploader": {
          "login": "vishh",
          "id": 7063592,
          "avatar_url": "https://avatars1.githubusercontent.com/u/7063592?v=3",
          "gravatar_id": "",
          "url": "https://api.github.com/users/vishh",
          "html_url": "https://github.com/vishh",
          "followers_url": "https://api.github.com/users/vishh/followers",
          "following_url": "https://api.github.com/users/vishh/following{/other_user}",
          "gists_url": "https://api.github.com/users/vishh/gists{/gist_id}",
          "starred_url": "https://api.github.com/users/vishh/starred{/owner}{/repo}",
          "subscriptions_url": "https://api.github.com/users/vishh/subscriptions",
          "organizations_url": "https://api.github.com/users/vishh/orgs",
          "repos_url": "https://api.github.com/users/vishh/repos",
          "events_url": "https://api.github.com/users/vishh/events{/privacy}",
          "received_events_url": "https://api.github.com/users/vishh/received_events",
          "type": "User",
          "site_admin": false
        },
        "content_type": "application/octet-stream",
        "state": "uploaded",
        "size": 12340064,
        "download_count": 9,
        "created_at": "2015-03-14T00:13:54Z",
        "updated_at": "2015-03-14T00:13:56Z",
        "browser_download_url": "https://github.com/kubernetes/heapster/releases/download/v0.9/heapster"
      }
    ],
    "tarball_url": "https://api.github.com/repos/kubernetes/heapster/tarball/v0.9",
    "zipball_url": "https://api.github.com/repos/kubernetes/heapster/zipball/v0.9",
    "body": "- [Standardized metrics](sinks/api/supported_metrics.go)\n- New [common API](sinks/api/types.go) in place for all external storage drivers.\n- Simplified heapster deployment scripts.\n- Bug fixes and misc enhancements.\n"
  },
  {
    "url": "https://api.github.com/repos/kubernetes/heapster/releases/970203",
    "assets_url": "https://api.github.com/repos/kubernetes/heapster/releases/970203/assets",
    "upload_url": "https://uploads.github.com/repos/kubernetes/heapster/releases/970203/assets{?name,label}",
    "html_url": "https://github.com/kubernetes/heapster/releases/tag/v0.7",
    "id": 970203,
    "tag_name": "v0.7",
    "target_commitish": "master",
    "name": "Heapster v0.7",
    "draft": false,
    "author": {
      "login": "vishh",
      "id": 7063592,
      "avatar_url": "https://avatars1.githubusercontent.com/u/7063592?v=3",
      "gravatar_id": "",
      "url": "https://api.github.com/users/vishh",
      "html_url": "https://github.com/vishh",
      "followers_url": "https://api.github.com/users/vishh/followers",
      "following_url": "https://api.github.com/users/vishh/following{/other_user}",
      "gists_url": "https://api.github.com/users/vishh/gists{/gist_id}",
      "starred_url": "https://api.github.com/users/vishh/starred{/owner}{/repo}",
      "subscriptions_url": "https://api.github.com/users/vishh/subscriptions",
      "organizations_url": "https://api.github.com/users/vishh/orgs",
      "repos_url": "https://api.github.com/users/vishh/repos",
      "events_url": "https://api.github.com/users/vishh/events{/privacy}",
      "received_events_url": "https://api.github.com/users/vishh/received_events",
      "type": "User",
      "site_admin": false
    },
    "prerelease": false,
    "created_at": "2015-02-20T02:43:23Z",
    "published_at": "2015-02-20T02:55:28Z",
    "assets": [
      {
        "url": "https://api.github.com/repos/kubernetes/heapster/releases/assets/432096",
        "id": 432096,
        "name": "heapster",
        "label": null,
        "uploader": {
          "login": "vishh",
          "id": 7063592,
          "avatar_url": "https://avatars1.githubusercontent.com/u/7063592?v=3",
          "gravatar_id": "",
          "url": "https://api.github.com/users/vishh",
          "html_url": "https://github.com/vishh",
          "followers_url": "https://api.github.com/users/vishh/followers",
          "following_url": "https://api.github.com/users/vishh/following{/other_user}",
          "gists_url": "https://api.github.com/users/vishh/gists{/gist_id}",
          "starred_url": "https://api.github.com/users/vishh/starred{/owner}{/repo}",
          "subscriptions_url": "https://api.github.com/users/vishh/subscriptions",
          "organizations_url": "https://api.github.com/users/vishh/orgs",
          "repos_url": "https://api.github.com/users/vishh/repos",
          "events_url": "https://api.github.com/users/vishh/events{/privacy}",
          "received_events_url": "https://api.github.com/users/vishh/received_events",
          "type": "User",
          "site_admin": false
        },
        "content_type": "application/octet-stream",
        "state": "uploaded",
        "size": 12341136,
        "download_count": 8,
        "created_at": "2015-02-20T02:54:30Z",
        "updated_at": "2015-02-20T02:54:37Z",
        "browser_download_url": "https://github.com/kubernetes/heapster/releases/download/v0.7/heapster"
      }
    ],
    "tarball_url": "https://api.github.com/repos/kubernetes/heapster/tarball/v0.7",
    "zipball_url": "https://api.github.com/repos/kubernetes/heapster/zipball/v0.7",
    "body": "New Features:\n- Support for Google Cloud Monitoring Backend. \n- Watch kubernetes api-server instead of polling for pods and nodes info.\n- Fetch stats in parallel.\n- Refactor code and improve testing.\n- Miscellaneous bug fixes.\n- Native support for CoreOS. The buddy is not required anymore.\n"
  },
  {
    "url": "https://api.github.com/repos/kubernetes/heapster/releases/876472",
    "assets_url": "https://api.github.com/repos/kubernetes/heapster/releases/876472/assets",
    "upload_url": "https://uploads.github.com/repos/kubernetes/heapster/releases/876472/assets{?name,label}",
    "html_url": "https://github.com/kubernetes/heapster/releases/tag/v0.6",
    "id": 876472,
    "tag_name": "v0.6",
    "target_commitish": "master",
    "name": "Heapster v0.6",
    "draft": false,
    "author": {
      "login": "vishh",
      "id": 7063592,
      "avatar_url": "https://avatars1.githubusercontent.com/u/7063592?v=3",
      "gravatar_id": "",
      "url": "https://api.github.com/users/vishh",
      "html_url": "https://github.com/vishh",
      "followers_url": "https://api.github.com/users/vishh/followers",
      "following_url": "https://api.github.com/users/vishh/following{/other_user}",
      "gists_url": "https://api.github.com/users/vishh/gists{/gist_id}",
      "starred_url": "https://api.github.com/users/vishh/starred{/owner}{/repo}",
      "subscriptions_url": "https://api.github.com/users/vishh/subscriptions",
      "organizations_url": "https://api.github.com/users/vishh/orgs",
      "repos_url": "https://api.github.com/users/vishh/repos",
      "events_url": "https://api.github.com/users/vishh/events{/privacy}",
      "received_events_url": "https://api.github.com/users/vishh/received_events",
      "type": "User",
      "site_admin": false
    },
    "prerelease": false,
    "created_at": "2015-01-22T23:22:28Z",
    "published_at": "2015-01-22T23:29:21Z",
    "assets": [
      {
        "url": "https://api.github.com/repos/kubernetes/heapster/releases/assets/390634",
        "id": 390634,
        "name": "heapster",
        "label": null,
        "uploader": {
          "login": "vishh",
          "id": 7063592,
          "avatar_url": "https://avatars1.githubusercontent.com/u/7063592?v=3",
          "gravatar_id": "",
          "url": "https://api.github.com/users/vishh",
          "html_url": "https://github.com/vishh",
          "followers_url": "https://api.github.com/users/vishh/followers",
          "following_url": "https://api.github.com/users/vishh/following{/other_user}",
          "gists_url": "https://api.github.com/users/vishh/gists{/gist_id}",
          "starred_url": "https://api.github.com/users/vishh/starred{/owner}{/repo}",
          "subscriptions_url": "https://api.github.com/users/vishh/subscriptions",
          "organizations_url": "https://api.github.com/users/vishh/orgs",
          "repos_url": "https://api.github.com/users/vishh/repos",
          "events_url": "https://api.github.com/users/vishh/events{/privacy}",
          "received_events_url": "https://api.github.com/users/vishh/received_events",
          "type": "User",
          "site_admin": false
        },
        "content_type": "application/octet-stream",
        "state": "uploaded",
        "size": 10735440,
        "download_count": 3,
        "created_at": "2015-01-22T22:28:12Z",
        "updated_at": "2015-01-22T22:28:12Z",
        "browser_download_url": "https://github.com/kubernetes/heapster/releases/download/v0.6/heapster"
      },
      {
        "url": "https://api.github.com/repos/kubernetes/heapster/releases/assets/390637",
        "id": 390637,
        "name": "heapster-coreos-buddy",
        "label": null,
        "uploader": {
          "login": "vishh",
          "id": 7063592,
          "avatar_url": "https://avatars1.githubusercontent.com/u/7063592?v=3",
          "gravatar_id": "",
          "url": "https://api.github.com/users/vishh",
          "html_url": "https://github.com/vishh",
          "followers_url": "https://api.github.com/users/vishh/followers",
          "following_url": "https://api.github.com/users/vishh/following{/other_user}",
          "gists_url": "https://api.github.com/users/vishh/gists{/gist_id}",
          "starred_url": "https://api.github.com/users/vishh/starred{/owner}{/repo}",
          "subscriptions_url": "https://api.github.com/users/vishh/subscriptions",
          "organizations_url": "https://api.github.com/users/vishh/orgs",
          "repos_url": "https://api.github.com/users/vishh/repos",
          "events_url": "https://api.github.com/users/vishh/events{/privacy}",
          "received_events_url": "https://api.github.com/users/vishh/received_events",
          "type": "User",
          "site_admin": false
        },
        "content_type": "application/octet-stream",
        "state": "uploaded",
        "size": 9937072,
        "download_count": 4,
        "created_at": "2015-01-22T22:29:55Z",
        "updated_at": "2015-01-22T22:30:12Z",
        "browser_download_url": "https://github.com/kubernetes/heapster/releases/download/v0.6/heapster-coreos-buddy"
      }
    ],
    "tarball_url": "https://api.github.com/repos/kubernetes/heapster/tarball/v0.6",
    "zipball_url": "https://api.github.com/repos/kubernetes/heapster/zipball/v0.6",
    "body": "- New \"/validate\" REST endpoint to probe heapster.\n- Heapster supports kube namespaces.\n- Heapster uses InfluxDB service DNS name while running in kube mode. \n"
  }
]
