[
  {
    "url": "https://api.github.com/repos/linkerd/namerctl/releases/5268353",
    "assets_url": "https://api.github.com/repos/linkerd/namerctl/releases/5268353/assets",
    "upload_url": "https://uploads.github.com/repos/linkerd/namerctl/releases/5268353/assets{?name,label}",
    "html_url": "https://github.com/linkerd/namerctl/releases/tag/0.8.6",
    "id": 5268353,
    "tag_name": "0.8.6",
    "target_commitish": "master",
    "name": "0.8.6",
    "draft": false,
    "author": {
      "login": "klingerf",
      "id": 9226,
      "avatar_url": "https://avatars3.githubusercontent.com/u/9226?v=3",
      "gravatar_id": "",
      "url": "https://api.github.com/users/klingerf",
      "html_url": "https://github.com/klingerf",
      "followers_url": "https://api.github.com/users/klingerf/followers",
      "following_url": "https://api.github.com/users/klingerf/following{/other_user}",
      "gists_url": "https://api.github.com/users/klingerf/gists{/gist_id}",
      "starred_url": "https://api.github.com/users/klingerf/starred{/owner}{/repo}",
      "subscriptions_url": "https://api.github.com/users/klingerf/subscriptions",
      "organizations_url": "https://api.github.com/users/klingerf/orgs",
      "repos_url": "https://api.github.com/users/klingerf/repos",
      "events_url": "https://api.github.com/users/klingerf/events{/privacy}",
      "received_events_url": "https://api.github.com/users/klingerf/received_events",
      "type": "User",
      "site_admin": false
    },
    "prerelease": false,
    "created_at": "2017-01-25T21:44:11Z",
    "published_at": "2017-01-25T21:50:32Z",
    "assets": [
      {
        "url": "https://api.github.com/repos/linkerd/namerctl/releases/assets/3060191",
        "id": 3060191,
        "name": "namerctl_darwin",
        "label": null,
        "uploader": {
          "login": "klingerf",
          "id": 9226,
          "avatar_url": "https://avatars3.githubusercontent.com/u/9226?v=3",
          "gravatar_id": "",
          "url": "https://api.github.com/users/klingerf",
          "html_url": "https://github.com/klingerf",
          "followers_url": "https://api.github.com/users/klingerf/followers",
          "following_url": "https://api.github.com/users/klingerf/following{/other_user}",
          "gists_url": "https://api.github.com/users/klingerf/gists{/gist_id}",
          "starred_url": "https://api.github.com/users/klingerf/starred{/owner}{/repo}",
          "subscriptions_url": "https://api.github.com/users/klingerf/subscriptions",
          "organizations_url": "https://api.github.com/users/klingerf/orgs",
          "repos_url": "https://api.github.com/users/klingerf/repos",
          "events_url": "https://api.github.com/users/klingerf/events{/privacy}",
          "received_events_url": "https://api.github.com/users/klingerf/received_events",
          "type": "User",
          "site_admin": false
        },
        "content_type": "application/octet-stream",
        "state": "uploaded",
        "size": 10024172,
        "download_count": 16,
        "created_at": "2017-01-25T21:50:12Z",
        "updated_at": "2017-01-25T21:50:19Z",
        "browser_download_url": "https://github.com/linkerd/namerctl/releases/download/0.8.6/namerctl_darwin"
      },
      {
        "url": "https://api.github.com/repos/linkerd/namerctl/releases/assets/3060192",
        "id": 3060192,
        "name": "namerctl_linux_amd64",
        "label": null,
        "uploader": {
          "login": "klingerf",
          "id": 9226,
          "avatar_url": "https://avatars3.githubusercontent.com/u/9226?v=3",
          "gravatar_id": "",
          "url": "https://api.github.com/users/klingerf",
          "html_url": "https://github.com/klingerf",
          "followers_url": "https://api.github.com/users/klingerf/followers",
          "following_url": "https://api.github.com/users/klingerf/following{/other_user}",
          "gists_url": "https://api.github.com/users/klingerf/gists{/gist_id}",
          "starred_url": "https://api.github.com/users/klingerf/starred{/owner}{/repo}",
          "subscriptions_url": "https://api.github.com/users/klingerf/subscriptions",
          "organizations_url": "https://api.github.com/users/klingerf/orgs",
          "repos_url": "https://api.github.com/users/klingerf/repos",
          "events_url": "https://api.github.com/users/klingerf/events{/privacy}",
          "received_events_url": "https://api.github.com/users/klingerf/received_events",
          "type": "User",
          "site_admin": false
        },
        "content_type": "application/octet-stream",
        "state": "uploaded",
        "size": 10020400,
        "download_count": 16,
        "created_at": "2017-01-25T21:50:12Z",
        "updated_at": "2017-01-25T21:50:24Z",
        "browser_download_url": "https://github.com/linkerd/namerctl/releases/download/0.8.6/namerctl_linux_amd64"
      },
      {
        "url": "https://api.github.com/repos/linkerd/namerctl/releases/assets/3060193",
        "id": 3060193,
        "name": "namerctl_linux_i386",
        "label": null,
        "uploader": {
          "login": "klingerf",
          "id": 9226,
          "avatar_url": "https://avatars3.githubusercontent.com/u/9226?v=3",
          "gravatar_id": "",
          "url": "https://api.github.com/users/klingerf",
          "html_url": "https://github.com/klingerf",
          "followers_url": "https://api.github.com/users/klingerf/followers",
          "following_url": "https://api.github.com/users/klingerf/following{/other_user}",
          "gists_url": "https://api.github.com/users/klingerf/gists{/gist_id}",
          "starred_url": "https://api.github.com/users/klingerf/starred{/owner}{/repo}",
          "subscriptions_url": "https://api.github.com/users/klingerf/subscriptions",
          "organizations_url": "https://api.github.com/users/klingerf/orgs",
          "repos_url": "https://api.github.com/users/klingerf/repos",
          "events_url": "https://api.github.com/users/klingerf/events{/privacy}",
          "received_events_url": "https://api.github.com/users/klingerf/received_events",
          "type": "User",
          "site_admin": false
        },
        "content_type": "application/octet-stream",
        "state": "uploaded",
        "size": 8668231,
        "download_count": 3,
        "created_at": "2017-01-25T21:50:12Z",
        "updated_at": "2017-01-25T21:50:27Z",
        "browser_download_url": "https://github.com/linkerd/namerctl/releases/download/0.8.6/namerctl_linux_i386"
      }
    ],
    "tarball_url": "https://api.github.com/repos/linkerd/namerctl/tarball/0.8.6",
    "zipball_url": "https://api.github.com/repos/linkerd/namerctl/zipball/0.8.6",
    "body": "- Add dockerfile for building namerctl image (#16)\n- Fix a scope bug where req would revert to nil when creating a dtab causing a panic (#15)\n- Add --json flag for json output/input (#14)\n"
  }
]
