{
  "id": 30645047,
  "name": "host_exporter",
  "full_name": "prometheus/host_exporter",
  "owner": {
    "login": "prometheus",
    "id": 3380462,
    "avatar_url": "https://avatars0.githubusercontent.com/u/3380462?v=3",
    "gravatar_id": "",
    "url": "https://api.github.com/users/prometheus",
    "html_url": "https://github.com/prometheus",
    "followers_url": "https://api.github.com/users/prometheus/followers",
    "following_url": "https://api.github.com/users/prometheus/following{/other_user}",
    "gists_url": "https://api.github.com/users/prometheus/gists{/gist_id}",
    "starred_url": "https://api.github.com/users/prometheus/starred{/owner}{/repo}",
    "subscriptions_url": "https://api.github.com/users/prometheus/subscriptions",
    "organizations_url": "https://api.github.com/users/prometheus/orgs",
    "repos_url": "https://api.github.com/users/prometheus/repos",
    "events_url": "https://api.github.com/users/prometheus/events{/privacy}",
    "received_events_url": "https://api.github.com/users/prometheus/received_events",
    "type": "Organization",
    "site_admin": false
  },
  "private": false,
  "html_url": "https://github.com/prometheus/host_exporter",
  "description": "See the \"node_exporter\" repository instead!",
  "fork": false,
  "url": "https://api.github.com/repos/prometheus/host_exporter",
  "forks_url": "https://api.github.com/repos/prometheus/host_exporter/forks",
  "keys_url": "https://api.github.com/repos/prometheus/host_exporter/keys{/key_id}",
  "collaborators_url": "https://api.github.com/repos/prometheus/host_exporter/collaborators{/collaborator}",
  "teams_url": "https://api.github.com/repos/prometheus/host_exporter/teams",
  "hooks_url": "https://api.github.com/repos/prometheus/host_exporter/hooks",
  "issue_events_url": "https://api.github.com/repos/prometheus/host_exporter/issues/events{/number}",
  "events_url": "https://api.github.com/repos/prometheus/host_exporter/events",
  "assignees_url": "https://api.github.com/repos/prometheus/host_exporter/assignees{/user}",
  "branches_url": "https://api.github.com/repos/prometheus/host_exporter/branches{/branch}",
  "tags_url": "https://api.github.com/repos/prometheus/host_exporter/tags",
  "blobs_url": "https://api.github.com/repos/prometheus/host_exporter/git/blobs{/sha}",
  "git_tags_url": "https://api.github.com/repos/prometheus/host_exporter/git/tags{/sha}",
  "git_refs_url": "https://api.github.com/repos/prometheus/host_exporter/git/refs{/sha}",
  "trees_url": "https://api.github.com/repos/prometheus/host_exporter/git/trees{/sha}",
  "statuses_url": "https://api.github.com/repos/prometheus/host_exporter/statuses/{sha}",
  "languages_url": "https://api.github.com/repos/prometheus/host_exporter/languages",
  "stargazers_url": "https://api.github.com/repos/prometheus/host_exporter/stargazers",
  "contributors_url": "https://api.github.com/repos/prometheus/host_exporter/contributors",
  "subscribers_url": "https://api.github.com/repos/prometheus/host_exporter/subscribers",
  "subscription_url": "https://api.github.com/repos/prometheus/host_exporter/subscription",
  "commits_url": "https://api.github.com/repos/prometheus/host_exporter/commits{/sha}",
  "git_commits_url": "https://api.github.com/repos/prometheus/host_exporter/git/commits{/sha}",
  "comments_url": "https://api.github.com/repos/prometheus/host_exporter/comments{/number}",
  "issue_comment_url": "https://api.github.com/repos/prometheus/host_exporter/issues/comments{/number}",
  "contents_url": "https://api.github.com/repos/prometheus/host_exporter/contents/{+path}",
  "compare_url": "https://api.github.com/repos/prometheus/host_exporter/compare/{base}...{head}",
  "merges_url": "https://api.github.com/repos/prometheus/host_exporter/merges",
  "archive_url": "https://api.github.com/repos/prometheus/host_exporter/{archive_format}{/ref}",
  "downloads_url": "https://api.github.com/repos/prometheus/host_exporter/downloads",
  "issues_url": "https://api.github.com/repos/prometheus/host_exporter/issues{/number}",
  "pulls_url": "https://api.github.com/repos/prometheus/host_exporter/pulls{/number}",
  "milestones_url": "https://api.github.com/repos/prometheus/host_exporter/milestones{/number}",
  "notifications_url": "https://api.github.com/repos/prometheus/host_exporter/notifications{?since,all,participating}",
  "labels_url": "https://api.github.com/repos/prometheus/host_exporter/labels{/name}",
  "releases_url": "https://api.github.com/repos/prometheus/host_exporter/releases{/id}",
  "deployments_url": "https://api.github.com/repos/prometheus/host_exporter/deployments",
  "created_at": "2015-02-11T11:40:14Z",
  "updated_at": "2016-02-20T13:18:31Z",
  "pushed_at": "2016-02-20T13:18:30Z",
  "git_url": "git://github.com/prometheus/host_exporter.git",
  "ssh_url": "git@github.com:prometheus/host_exporter.git",
  "clone_url": "https://github.com/prometheus/host_exporter.git",
  "svn_url": "https://github.com/prometheus/host_exporter",
  "homepage": null,
  "size": 1,
  "stargazers_count": 0,
  "watchers_count": 0,
  "language": null,
  "has_issues": true,
  "has_projects": true,
  "has_downloads": true,
  "has_wiki": true,
  "has_pages": false,
  "forks_count": 1,
  "mirror_url": null,
  "open_issues_count": 0,
  "forks": 1,
  "open_issues": 0,
  "watchers": 0,
  "default_branch": "master",
  "permissions": {
    "admin": false,
    "push": false,
    "pull": true
  },
  "organization": {
    "login": "prometheus",
    "id": 3380462,
    "avatar_url": "https://avatars0.githubusercontent.com/u/3380462?v=3",
    "gravatar_id": "",
    "url": "https://api.github.com/users/prometheus",
    "html_url": "https://github.com/prometheus",
    "followers_url": "https://api.github.com/users/prometheus/followers",
    "following_url": "https://api.github.com/users/prometheus/following{/other_user}",
    "gists_url": "https://api.github.com/users/prometheus/gists{/gist_id}",
    "starred_url": "https://api.github.com/users/prometheus/starred{/owner}{/repo}",
    "subscriptions_url": "https://api.github.com/users/prometheus/subscriptions",
    "organizations_url": "https://api.github.com/users/prometheus/orgs",
    "repos_url": "https://api.github.com/users/prometheus/repos",
    "events_url": "https://api.github.com/users/prometheus/events{/privacy}",
    "received_events_url": "https://api.github.com/users/prometheus/received_events",
    "type": "Organization",
    "site_admin": false
  },
  "network_count": 1,
  "subscribers_count": 7
}
