{
  "count": 1,
  "next": null,
  "previous": null,
  "results": [
    {
      "name": "latest",
      "full_size": 324723086,
      "images": [
        {
          "size": 324723086,
          "architecture": "amd64",
          "variant": null,
          "features": null,
          "os": "linux",
          "os_version": null,
          "os_features": null
        }
      ],
      "id": 197918,
      "repository": 165894,
      "creator": 125716,
      "last_updater": 125716,
      "last_updated": "2017-04-10T12:00:47.816626Z",
      "image_id": null,
      "v2": true
    }
  ]
}
