{
  "id": 56714870,
  "name": "basictracer-python",
  "full_name": "opentracing/basictracer-python",
  "owner": {
    "login": "opentracing",
    "id": 15482765,
    "avatar_url": "https://avatars2.githubusercontent.com/u/15482765?v=3",
    "gravatar_id": "",
    "url": "https://api.github.com/users/opentracing",
    "html_url": "https://github.com/opentracing",
    "followers_url": "https://api.github.com/users/opentracing/followers",
    "following_url": "https://api.github.com/users/opentracing/following{/other_user}",
    "gists_url": "https://api.github.com/users/opentracing/gists{/gist_id}",
    "starred_url": "https://api.github.com/users/opentracing/starred{/owner}{/repo}",
    "subscriptions_url": "https://api.github.com/users/opentracing/subscriptions",
    "organizations_url": "https://api.github.com/users/opentracing/orgs",
    "repos_url": "https://api.github.com/users/opentracing/repos",
    "events_url": "https://api.github.com/users/opentracing/events{/privacy}",
    "received_events_url": "https://api.github.com/users/opentracing/received_events",
    "type": "Organization",
    "site_admin": false
  },
  "private": false,
  "html_url": "https://github.com/opentracing/basictracer-python",
  "description": "The Python implementation of the \"BasicTracer\" reference implementation",
  "fork": false,
  "url": "https://api.github.com/repos/opentracing/basictracer-python",
  "forks_url": "https://api.github.com/repos/opentracing/basictracer-python/forks",
  "keys_url": "https://api.github.com/repos/opentracing/basictracer-python/keys{/key_id}",
  "collaborators_url": "https://api.github.com/repos/opentracing/basictracer-python/collaborators{/collaborator}",
  "teams_url": "https://api.github.com/repos/opentracing/basictracer-python/teams",
  "hooks_url": "https://api.github.com/repos/opentracing/basictracer-python/hooks",
  "issue_events_url": "https://api.github.com/repos/opentracing/basictracer-python/issues/events{/number}",
  "events_url": "https://api.github.com/repos/opentracing/basictracer-python/events",
  "assignees_url": "https://api.github.com/repos/opentracing/basictracer-python/assignees{/user}",
  "branches_url": "https://api.github.com/repos/opentracing/basictracer-python/branches{/branch}",
  "tags_url": "https://api.github.com/repos/opentracing/basictracer-python/tags",
  "blobs_url": "https://api.github.com/repos/opentracing/basictracer-python/git/blobs{/sha}",
  "git_tags_url": "https://api.github.com/repos/opentracing/basictracer-python/git/tags{/sha}",
  "git_refs_url": "https://api.github.com/repos/opentracing/basictracer-python/git/refs{/sha}",
  "trees_url": "https://api.github.com/repos/opentracing/basictracer-python/git/trees{/sha}",
  "statuses_url": "https://api.github.com/repos/opentracing/basictracer-python/statuses/{sha}",
  "languages_url": "https://api.github.com/repos/opentracing/basictracer-python/languages",
  "stargazers_url": "https://api.github.com/repos/opentracing/basictracer-python/stargazers",
  "contributors_url": "https://api.github.com/repos/opentracing/basictracer-python/contributors",
  "subscribers_url": "https://api.github.com/repos/opentracing/basictracer-python/subscribers",
  "subscription_url": "https://api.github.com/repos/opentracing/basictracer-python/subscription",
  "commits_url": "https://api.github.com/repos/opentracing/basictracer-python/commits{/sha}",
  "git_commits_url": "https://api.github.com/repos/opentracing/basictracer-python/git/commits{/sha}",
  "comments_url": "https://api.github.com/repos/opentracing/basictracer-python/comments{/number}",
  "issue_comment_url": "https://api.github.com/repos/opentracing/basictracer-python/issues/comments{/number}",
  "contents_url": "https://api.github.com/repos/opentracing/basictracer-python/contents/{+path}",
  "compare_url": "https://api.github.com/repos/opentracing/basictracer-python/compare/{base}...{head}",
  "merges_url": "https://api.github.com/repos/opentracing/basictracer-python/merges",
  "archive_url": "https://api.github.com/repos/opentracing/basictracer-python/{archive_format}{/ref}",
  "downloads_url": "https://api.github.com/repos/opentracing/basictracer-python/downloads",
  "issues_url": "https://api.github.com/repos/opentracing/basictracer-python/issues{/number}",
  "pulls_url": "https://api.github.com/repos/opentracing/basictracer-python/pulls{/number}",
  "milestones_url": "https://api.github.com/repos/opentracing/basictracer-python/milestones{/number}",
  "notifications_url": "https://api.github.com/repos/opentracing/basictracer-python/notifications{?since,all,participating}",
  "labels_url": "https://api.github.com/repos/opentracing/basictracer-python/labels{/name}",
  "releases_url": "https://api.github.com/repos/opentracing/basictracer-python/releases{/id}",
  "deployments_url": "https://api.github.com/repos/opentracing/basictracer-python/deployments",
  "created_at": "2016-04-20T19:22:31Z",
  "updated_at": "2017-04-07T21:19:18Z",
  "pushed_at": "2017-04-20T00:40:16Z",
  "git_url": "git://github.com/opentracing/basictracer-python.git",
  "ssh_url": "git@github.com:opentracing/basictracer-python.git",
  "clone_url": "https://github.com/opentracing/basictracer-python.git",
  "svn_url": "https://github.com/opentracing/basictracer-python",
  "homepage": "",
  "size": 47,
  "stargazers_count": 6,
  "watchers_count": 6,
  "language": "Python",
  "has_issues": true,
  "has_projects": true,
  "has_downloads": true,
  "has_wiki": true,
  "has_pages": false,
  "forks_count": 3,
  "mirror_url": null,
  "open_issues_count": 3,
  "forks": 3,
  "open_issues": 3,
  "watchers": 6,
  "default_branch": "master",
  "permissions": {
    "admin": false,
    "push": false,
    "pull": true
  },
  "organization": {
    "login": "opentracing",
    "id": 15482765,
    "avatar_url": "https://avatars2.githubusercontent.com/u/15482765?v=3",
    "gravatar_id": "",
    "url": "https://api.github.com/users/opentracing",
    "html_url": "https://github.com/opentracing",
    "followers_url": "https://api.github.com/users/opentracing/followers",
    "following_url": "https://api.github.com/users/opentracing/following{/other_user}",
    "gists_url": "https://api.github.com/users/opentracing/gists{/gist_id}",
    "starred_url": "https://api.github.com/users/opentracing/starred{/owner}{/repo}",
    "subscriptions_url": "https://api.github.com/users/opentracing/subscriptions",
    "organizations_url": "https://api.github.com/users/opentracing/orgs",
    "repos_url": "https://api.github.com/users/opentracing/repos",
    "events_url": "https://api.github.com/users/opentracing/events{/privacy}",
    "received_events_url": "https://api.github.com/users/opentracing/received_events",
    "type": "Organization",
    "site_admin": false
  },
  "network_count": 3,
  "subscribers_count": 5
}
