{
  "id": 60211703,
  "name": "opentracing-csharp",
  "full_name": "opentracing/opentracing-csharp",
  "owner": {
    "login": "opentracing",
    "id": 15482765,
    "avatar_url": "https://avatars2.githubusercontent.com/u/15482765?v=3",
    "gravatar_id": "",
    "url": "https://api.github.com/users/opentracing",
    "html_url": "https://github.com/opentracing",
    "followers_url": "https://api.github.com/users/opentracing/followers",
    "following_url": "https://api.github.com/users/opentracing/following{/other_user}",
    "gists_url": "https://api.github.com/users/opentracing/gists{/gist_id}",
    "starred_url": "https://api.github.com/users/opentracing/starred{/owner}{/repo}",
    "subscriptions_url": "https://api.github.com/users/opentracing/subscriptions",
    "organizations_url": "https://api.github.com/users/opentracing/orgs",
    "repos_url": "https://api.github.com/users/opentracing/repos",
    "events_url": "https://api.github.com/users/opentracing/events{/privacy}",
    "received_events_url": "https://api.github.com/users/opentracing/received_events",
    "type": "Organization",
    "site_admin": false
  },
  "private": false,
  "html_url": "https://github.com/opentracing/opentracing-csharp",
  "description": "OpenTracing API for C# (.Net)",
  "fork": false,
  "url": "https://api.github.com/repos/opentracing/opentracing-csharp",
  "forks_url": "https://api.github.com/repos/opentracing/opentracing-csharp/forks",
  "keys_url": "https://api.github.com/repos/opentracing/opentracing-csharp/keys{/key_id}",
  "collaborators_url": "https://api.github.com/repos/opentracing/opentracing-csharp/collaborators{/collaborator}",
  "teams_url": "https://api.github.com/repos/opentracing/opentracing-csharp/teams",
  "hooks_url": "https://api.github.com/repos/opentracing/opentracing-csharp/hooks",
  "issue_events_url": "https://api.github.com/repos/opentracing/opentracing-csharp/issues/events{/number}",
  "events_url": "https://api.github.com/repos/opentracing/opentracing-csharp/events",
  "assignees_url": "https://api.github.com/repos/opentracing/opentracing-csharp/assignees{/user}",
  "branches_url": "https://api.github.com/repos/opentracing/opentracing-csharp/branches{/branch}",
  "tags_url": "https://api.github.com/repos/opentracing/opentracing-csharp/tags",
  "blobs_url": "https://api.github.com/repos/opentracing/opentracing-csharp/git/blobs{/sha}",
  "git_tags_url": "https://api.github.com/repos/opentracing/opentracing-csharp/git/tags{/sha}",
  "git_refs_url": "https://api.github.com/repos/opentracing/opentracing-csharp/git/refs{/sha}",
  "trees_url": "https://api.github.com/repos/opentracing/opentracing-csharp/git/trees{/sha}",
  "statuses_url": "https://api.github.com/repos/opentracing/opentracing-csharp/statuses/{sha}",
  "languages_url": "https://api.github.com/repos/opentracing/opentracing-csharp/languages",
  "stargazers_url": "https://api.github.com/repos/opentracing/opentracing-csharp/stargazers",
  "contributors_url": "https://api.github.com/repos/opentracing/opentracing-csharp/contributors",
  "subscribers_url": "https://api.github.com/repos/opentracing/opentracing-csharp/subscribers",
  "subscription_url": "https://api.github.com/repos/opentracing/opentracing-csharp/subscription",
  "commits_url": "https://api.github.com/repos/opentracing/opentracing-csharp/commits{/sha}",
  "git_commits_url": "https://api.github.com/repos/opentracing/opentracing-csharp/git/commits{/sha}",
  "comments_url": "https://api.github.com/repos/opentracing/opentracing-csharp/comments{/number}",
  "issue_comment_url": "https://api.github.com/repos/opentracing/opentracing-csharp/issues/comments{/number}",
  "contents_url": "https://api.github.com/repos/opentracing/opentracing-csharp/contents/{+path}",
  "compare_url": "https://api.github.com/repos/opentracing/opentracing-csharp/compare/{base}...{head}",
  "merges_url": "https://api.github.com/repos/opentracing/opentracing-csharp/merges",
  "archive_url": "https://api.github.com/repos/opentracing/opentracing-csharp/{archive_format}{/ref}",
  "downloads_url": "https://api.github.com/repos/opentracing/opentracing-csharp/downloads",
  "issues_url": "https://api.github.com/repos/opentracing/opentracing-csharp/issues{/number}",
  "pulls_url": "https://api.github.com/repos/opentracing/opentracing-csharp/pulls{/number}",
  "milestones_url": "https://api.github.com/repos/opentracing/opentracing-csharp/milestones{/number}",
  "notifications_url": "https://api.github.com/repos/opentracing/opentracing-csharp/notifications{?since,all,participating}",
  "labels_url": "https://api.github.com/repos/opentracing/opentracing-csharp/labels{/name}",
  "releases_url": "https://api.github.com/repos/opentracing/opentracing-csharp/releases{/id}",
  "deployments_url": "https://api.github.com/repos/opentracing/opentracing-csharp/deployments",
  "created_at": "2016-06-01T21:22:52Z",
  "updated_at": "2017-05-06T07:34:37Z",
  "pushed_at": "2017-04-27T16:49:05Z",
  "git_url": "git://github.com/opentracing/opentracing-csharp.git",
  "ssh_url": "git@github.com:opentracing/opentracing-csharp.git",
  "clone_url": "https://github.com/opentracing/opentracing-csharp.git",
  "svn_url": "https://github.com/opentracing/opentracing-csharp",
  "homepage": "http://opentracing.io",
  "size": 619,
  "stargazers_count": 39,
  "watchers_count": 39,
  "language": "C#",
  "has_issues": true,
  "has_projects": true,
  "has_downloads": true,
  "has_wiki": true,
  "has_pages": false,
  "forks_count": 10,
  "mirror_url": null,
  "open_issues_count": 8,
  "forks": 10,
  "open_issues": 8,
  "watchers": 39,
  "default_branch": "master",
  "permissions": {
    "admin": false,
    "push": false,
    "pull": true
  },
  "organization": {
    "login": "opentracing",
    "id": 15482765,
    "avatar_url": "https://avatars2.githubusercontent.com/u/15482765?v=3",
    "gravatar_id": "",
    "url": "https://api.github.com/users/opentracing",
    "html_url": "https://github.com/opentracing",
    "followers_url": "https://api.github.com/users/opentracing/followers",
    "following_url": "https://api.github.com/users/opentracing/following{/other_user}",
    "gists_url": "https://api.github.com/users/opentracing/gists{/gist_id}",
    "starred_url": "https://api.github.com/users/opentracing/starred{/owner}{/repo}",
    "subscriptions_url": "https://api.github.com/users/opentracing/subscriptions",
    "organizations_url": "https://api.github.com/users/opentracing/orgs",
    "repos_url": "https://api.github.com/users/opentracing/repos",
    "events_url": "https://api.github.com/users/opentracing/events{/privacy}",
    "received_events_url": "https://api.github.com/users/opentracing/received_events",
    "type": "Organization",
    "site_admin": false
  },
  "network_count": 10,
  "subscribers_count": 12
}
