{
  "id": 88664721,
  "name": "examples",
  "full_name": "kubernetes/examples",
  "owner": {
    "login": "kubernetes",
    "id": 13629408,
    "avatar_url": "https://avatars1.githubusercontent.com/u/13629408?v=3",
    "gravatar_id": "",
    "url": "https://api.github.com/users/kubernetes",
    "html_url": "https://github.com/kubernetes",
    "followers_url": "https://api.github.com/users/kubernetes/followers",
    "following_url": "https://api.github.com/users/kubernetes/following{/other_user}",
    "gists_url": "https://api.github.com/users/kubernetes/gists{/gist_id}",
    "starred_url": "https://api.github.com/users/kubernetes/starred{/owner}{/repo}",
    "subscriptions_url": "https://api.github.com/users/kubernetes/subscriptions",
    "organizations_url": "https://api.github.com/users/kubernetes/orgs",
    "repos_url": "https://api.github.com/users/kubernetes/repos",
    "events_url": "https://api.github.com/users/kubernetes/events{/privacy}",
    "received_events_url": "https://api.github.com/users/kubernetes/received_events",
    "type": "Organization",
    "site_admin": false
  },
  "private": false,
  "html_url": "https://github.com/kubernetes/examples",
  "description": "Kubernetes application example tutorials",
  "fork": false,
  "url": "https://api.github.com/repos/kubernetes/examples",
  "forks_url": "https://api.github.com/repos/kubernetes/examples/forks",
  "keys_url": "https://api.github.com/repos/kubernetes/examples/keys{/key_id}",
  "collaborators_url": "https://api.github.com/repos/kubernetes/examples/collaborators{/collaborator}",
  "teams_url": "https://api.github.com/repos/kubernetes/examples/teams",
  "hooks_url": "https://api.github.com/repos/kubernetes/examples/hooks",
  "issue_events_url": "https://api.github.com/repos/kubernetes/examples/issues/events{/number}",
  "events_url": "https://api.github.com/repos/kubernetes/examples/events",
  "assignees_url": "https://api.github.com/repos/kubernetes/examples/assignees{/user}",
  "branches_url": "https://api.github.com/repos/kubernetes/examples/branches{/branch}",
  "tags_url": "https://api.github.com/repos/kubernetes/examples/tags",
  "blobs_url": "https://api.github.com/repos/kubernetes/examples/git/blobs{/sha}",
  "git_tags_url": "https://api.github.com/repos/kubernetes/examples/git/tags{/sha}",
  "git_refs_url": "https://api.github.com/repos/kubernetes/examples/git/refs{/sha}",
  "trees_url": "https://api.github.com/repos/kubernetes/examples/git/trees{/sha}",
  "statuses_url": "https://api.github.com/repos/kubernetes/examples/statuses/{sha}",
  "languages_url": "https://api.github.com/repos/kubernetes/examples/languages",
  "stargazers_url": "https://api.github.com/repos/kubernetes/examples/stargazers",
  "contributors_url": "https://api.github.com/repos/kubernetes/examples/contributors",
  "subscribers_url": "https://api.github.com/repos/kubernetes/examples/subscribers",
  "subscription_url": "https://api.github.com/repos/kubernetes/examples/subscription",
  "commits_url": "https://api.github.com/repos/kubernetes/examples/commits{/sha}",
  "git_commits_url": "https://api.github.com/repos/kubernetes/examples/git/commits{/sha}",
  "comments_url": "https://api.github.com/repos/kubernetes/examples/comments{/number}",
  "issue_comment_url": "https://api.github.com/repos/kubernetes/examples/issues/comments{/number}",
  "contents_url": "https://api.github.com/repos/kubernetes/examples/contents/{+path}",
  "compare_url": "https://api.github.com/repos/kubernetes/examples/compare/{base}...{head}",
  "merges_url": "https://api.github.com/repos/kubernetes/examples/merges",
  "archive_url": "https://api.github.com/repos/kubernetes/examples/{archive_format}{/ref}",
  "downloads_url": "https://api.github.com/repos/kubernetes/examples/downloads",
  "issues_url": "https://api.github.com/repos/kubernetes/examples/issues{/number}",
  "pulls_url": "https://api.github.com/repos/kubernetes/examples/pulls{/number}",
  "milestones_url": "https://api.github.com/repos/kubernetes/examples/milestones{/number}",
  "notifications_url": "https://api.github.com/repos/kubernetes/examples/notifications{?since,all,participating}",
  "labels_url": "https://api.github.com/repos/kubernetes/examples/labels{/name}",
  "releases_url": "https://api.github.com/repos/kubernetes/examples/releases{/id}",
  "deployments_url": "https://api.github.com/repos/kubernetes/examples/deployments",
  "created_at": "2017-04-18T19:52:08Z",
  "updated_at": "2017-04-18T19:52:08Z",
  "pushed_at": "2017-05-01T14:40:52Z",
  "git_url": "git://github.com/kubernetes/examples.git",
  "ssh_url": "git@github.com:kubernetes/examples.git",
  "clone_url": "https://github.com/kubernetes/examples.git",
  "svn_url": "https://github.com/kubernetes/examples",
  "homepage": null,
  "size": 4,
  "stargazers_count": 0,
  "watchers_count": 0,
  "language": null,
  "has_issues": true,
  "has_projects": true,
  "has_downloads": true,
  "has_wiki": true,
  "has_pages": false,
  "forks_count": 1,
  "mirror_url": null,
  "open_issues_count": 1,
  "forks": 1,
  "open_issues": 1,
  "watchers": 0,
  "default_branch": "master",
  "permissions": {
    "admin": false,
    "push": false,
    "pull": true
  },
  "organization": {
    "login": "kubernetes",
    "id": 13629408,
    "avatar_url": "https://avatars1.githubusercontent.com/u/13629408?v=3",
    "gravatar_id": "",
    "url": "https://api.github.com/users/kubernetes",
    "html_url": "https://github.com/kubernetes",
    "followers_url": "https://api.github.com/users/kubernetes/followers",
    "following_url": "https://api.github.com/users/kubernetes/following{/other_user}",
    "gists_url": "https://api.github.com/users/kubernetes/gists{/gist_id}",
    "starred_url": "https://api.github.com/users/kubernetes/starred{/owner}{/repo}",
    "subscriptions_url": "https://api.github.com/users/kubernetes/subscriptions",
    "organizations_url": "https://api.github.com/users/kubernetes/orgs",
    "repos_url": "https://api.github.com/users/kubernetes/repos",
    "events_url": "https://api.github.com/users/kubernetes/events{/privacy}",
    "received_events_url": "https://api.github.com/users/kubernetes/received_events",
    "type": "Organization",
    "site_admin": false
  },
  "network_count": 1,
  "subscribers_count": 13
}
