{
  "id": 44586851,
  "name": "fluentd-website",
  "full_name": "fluent/fluentd-website",
  "owner": {
    "login": "fluent",
    "id": 859518,
    "avatar_url": "https://avatars3.githubusercontent.com/u/859518?v=3",
    "gravatar_id": "",
    "url": "https://api.github.com/users/fluent",
    "html_url": "https://github.com/fluent",
    "followers_url": "https://api.github.com/users/fluent/followers",
    "following_url": "https://api.github.com/users/fluent/following{/other_user}",
    "gists_url": "https://api.github.com/users/fluent/gists{/gist_id}",
    "starred_url": "https://api.github.com/users/fluent/starred{/owner}{/repo}",
    "subscriptions_url": "https://api.github.com/users/fluent/subscriptions",
    "organizations_url": "https://api.github.com/users/fluent/orgs",
    "repos_url": "https://api.github.com/users/fluent/repos",
    "events_url": "https://api.github.com/users/fluent/events{/privacy}",
    "received_events_url": "https://api.github.com/users/fluent/received_events",
    "type": "Organization",
    "site_admin": false
  },
  "private": false,
  "html_url": "https://github.com/fluent/fluentd-website",
  "description": "For fluentd.org",
  "fork": false,
  "url": "https://api.github.com/repos/fluent/fluentd-website",
  "forks_url": "https://api.github.com/repos/fluent/fluentd-website/forks",
  "keys_url": "https://api.github.com/repos/fluent/fluentd-website/keys{/key_id}",
  "collaborators_url": "https://api.github.com/repos/fluent/fluentd-website/collaborators{/collaborator}",
  "teams_url": "https://api.github.com/repos/fluent/fluentd-website/teams",
  "hooks_url": "https://api.github.com/repos/fluent/fluentd-website/hooks",
  "issue_events_url": "https://api.github.com/repos/fluent/fluentd-website/issues/events{/number}",
  "events_url": "https://api.github.com/repos/fluent/fluentd-website/events",
  "assignees_url": "https://api.github.com/repos/fluent/fluentd-website/assignees{/user}",
  "branches_url": "https://api.github.com/repos/fluent/fluentd-website/branches{/branch}",
  "tags_url": "https://api.github.com/repos/fluent/fluentd-website/tags",
  "blobs_url": "https://api.github.com/repos/fluent/fluentd-website/git/blobs{/sha}",
  "git_tags_url": "https://api.github.com/repos/fluent/fluentd-website/git/tags{/sha}",
  "git_refs_url": "https://api.github.com/repos/fluent/fluentd-website/git/refs{/sha}",
  "trees_url": "https://api.github.com/repos/fluent/fluentd-website/git/trees{/sha}",
  "statuses_url": "https://api.github.com/repos/fluent/fluentd-website/statuses/{sha}",
  "languages_url": "https://api.github.com/repos/fluent/fluentd-website/languages",
  "stargazers_url": "https://api.github.com/repos/fluent/fluentd-website/stargazers",
  "contributors_url": "https://api.github.com/repos/fluent/fluentd-website/contributors",
  "subscribers_url": "https://api.github.com/repos/fluent/fluentd-website/subscribers",
  "subscription_url": "https://api.github.com/repos/fluent/fluentd-website/subscription",
  "commits_url": "https://api.github.com/repos/fluent/fluentd-website/commits{/sha}",
  "git_commits_url": "https://api.github.com/repos/fluent/fluentd-website/git/commits{/sha}",
  "comments_url": "https://api.github.com/repos/fluent/fluentd-website/comments{/number}",
  "issue_comment_url": "https://api.github.com/repos/fluent/fluentd-website/issues/comments{/number}",
  "contents_url": "https://api.github.com/repos/fluent/fluentd-website/contents/{+path}",
  "compare_url": "https://api.github.com/repos/fluent/fluentd-website/compare/{base}...{head}",
  "merges_url": "https://api.github.com/repos/fluent/fluentd-website/merges",
  "archive_url": "https://api.github.com/repos/fluent/fluentd-website/{archive_format}{/ref}",
  "downloads_url": "https://api.github.com/repos/fluent/fluentd-website/downloads",
  "issues_url": "https://api.github.com/repos/fluent/fluentd-website/issues{/number}",
  "pulls_url": "https://api.github.com/repos/fluent/fluentd-website/pulls{/number}",
  "milestones_url": "https://api.github.com/repos/fluent/fluentd-website/milestones{/number}",
  "notifications_url": "https://api.github.com/repos/fluent/fluentd-website/notifications{?since,all,participating}",
  "labels_url": "https://api.github.com/repos/fluent/fluentd-website/labels{/name}",
  "releases_url": "https://api.github.com/repos/fluent/fluentd-website/releases{/id}",
  "deployments_url": "https://api.github.com/repos/fluent/fluentd-website/deployments",
  "created_at": "2015-10-20T06:33:05Z",
  "updated_at": "2016-10-27T06:10:05Z",
  "pushed_at": "2017-05-08T15:40:24Z",
  "git_url": "git://github.com/fluent/fluentd-website.git",
  "ssh_url": "git@github.com:fluent/fluentd-website.git",
  "clone_url": "https://github.com/fluent/fluentd-website.git",
  "svn_url": "https://github.com/fluent/fluentd-website",
  "homepage": "http://www.fluentd.org/",
  "size": 58619,
  "stargazers_count": 2,
  "watchers_count": 2,
  "language": "HTML",
  "has_issues": true,
  "has_projects": true,
  "has_downloads": true,
  "has_wiki": true,
  "has_pages": false,
  "forks_count": 9,
  "mirror_url": null,
  "open_issues_count": 4,
  "forks": 9,
  "open_issues": 4,
  "watchers": 2,
  "default_branch": "master",
  "permissions": {
    "admin": false,
    "push": false,
    "pull": true
  },
  "organization": {
    "login": "fluent",
    "id": 859518,
    "avatar_url": "https://avatars3.githubusercontent.com/u/859518?v=3",
    "gravatar_id": "",
    "url": "https://api.github.com/users/fluent",
    "html_url": "https://github.com/fluent",
    "followers_url": "https://api.github.com/users/fluent/followers",
    "following_url": "https://api.github.com/users/fluent/following{/other_user}",
    "gists_url": "https://api.github.com/users/fluent/gists{/gist_id}",
    "starred_url": "https://api.github.com/users/fluent/starred{/owner}{/repo}",
    "subscriptions_url": "https://api.github.com/users/fluent/subscriptions",
    "organizations_url": "https://api.github.com/users/fluent/orgs",
    "repos_url": "https://api.github.com/users/fluent/repos",
    "events_url": "https://api.github.com/users/fluent/events{/privacy}",
    "received_events_url": "https://api.github.com/users/fluent/received_events",
    "type": "Organization",
    "site_admin": false
  },
  "network_count": 9,
  "subscribers_count": 7
}
