{
  "id": 70192049,
  "name": "contrib",
  "full_name": "opentracing/contrib",
  "owner": {
    "login": "opentracing",
    "id": 15482765,
    "avatar_url": "https://avatars2.githubusercontent.com/u/15482765?v=3",
    "gravatar_id": "",
    "url": "https://api.github.com/users/opentracing",
    "html_url": "https://github.com/opentracing",
    "followers_url": "https://api.github.com/users/opentracing/followers",
    "following_url": "https://api.github.com/users/opentracing/following{/other_user}",
    "gists_url": "https://api.github.com/users/opentracing/gists{/gist_id}",
    "starred_url": "https://api.github.com/users/opentracing/starred{/owner}{/repo}",
    "subscriptions_url": "https://api.github.com/users/opentracing/subscriptions",
    "organizations_url": "https://api.github.com/users/opentracing/orgs",
    "repos_url": "https://api.github.com/users/opentracing/repos",
    "events_url": "https://api.github.com/users/opentracing/events{/privacy}",
    "received_events_url": "https://api.github.com/users/opentracing/received_events",
    "type": "Organization",
    "site_admin": false
  },
  "private": false,
  "html_url": "https://github.com/opentracing/contrib",
  "description": "A place (or, really, a pointer) for community contributions to OpenTracing",
  "fork": false,
  "url": "https://api.github.com/repos/opentracing/contrib",
  "forks_url": "https://api.github.com/repos/opentracing/contrib/forks",
  "keys_url": "https://api.github.com/repos/opentracing/contrib/keys{/key_id}",
  "collaborators_url": "https://api.github.com/repos/opentracing/contrib/collaborators{/collaborator}",
  "teams_url": "https://api.github.com/repos/opentracing/contrib/teams",
  "hooks_url": "https://api.github.com/repos/opentracing/contrib/hooks",
  "issue_events_url": "https://api.github.com/repos/opentracing/contrib/issues/events{/number}",
  "events_url": "https://api.github.com/repos/opentracing/contrib/events",
  "assignees_url": "https://api.github.com/repos/opentracing/contrib/assignees{/user}",
  "branches_url": "https://api.github.com/repos/opentracing/contrib/branches{/branch}",
  "tags_url": "https://api.github.com/repos/opentracing/contrib/tags",
  "blobs_url": "https://api.github.com/repos/opentracing/contrib/git/blobs{/sha}",
  "git_tags_url": "https://api.github.com/repos/opentracing/contrib/git/tags{/sha}",
  "git_refs_url": "https://api.github.com/repos/opentracing/contrib/git/refs{/sha}",
  "trees_url": "https://api.github.com/repos/opentracing/contrib/git/trees{/sha}",
  "statuses_url": "https://api.github.com/repos/opentracing/contrib/statuses/{sha}",
  "languages_url": "https://api.github.com/repos/opentracing/contrib/languages",
  "stargazers_url": "https://api.github.com/repos/opentracing/contrib/stargazers",
  "contributors_url": "https://api.github.com/repos/opentracing/contrib/contributors",
  "subscribers_url": "https://api.github.com/repos/opentracing/contrib/subscribers",
  "subscription_url": "https://api.github.com/repos/opentracing/contrib/subscription",
  "commits_url": "https://api.github.com/repos/opentracing/contrib/commits{/sha}",
  "git_commits_url": "https://api.github.com/repos/opentracing/contrib/git/commits{/sha}",
  "comments_url": "https://api.github.com/repos/opentracing/contrib/comments{/number}",
  "issue_comment_url": "https://api.github.com/repos/opentracing/contrib/issues/comments{/number}",
  "contents_url": "https://api.github.com/repos/opentracing/contrib/contents/{+path}",
  "compare_url": "https://api.github.com/repos/opentracing/contrib/compare/{base}...{head}",
  "merges_url": "https://api.github.com/repos/opentracing/contrib/merges",
  "archive_url": "https://api.github.com/repos/opentracing/contrib/{archive_format}{/ref}",
  "downloads_url": "https://api.github.com/repos/opentracing/contrib/downloads",
  "issues_url": "https://api.github.com/repos/opentracing/contrib/issues{/number}",
  "pulls_url": "https://api.github.com/repos/opentracing/contrib/pulls{/number}",
  "milestones_url": "https://api.github.com/repos/opentracing/contrib/milestones{/number}",
  "notifications_url": "https://api.github.com/repos/opentracing/contrib/notifications{?since,all,participating}",
  "labels_url": "https://api.github.com/repos/opentracing/contrib/labels{/name}",
  "releases_url": "https://api.github.com/repos/opentracing/contrib/releases{/id}",
  "deployments_url": "https://api.github.com/repos/opentracing/contrib/deployments",
  "created_at": "2016-10-06T20:51:45Z",
  "updated_at": "2016-11-23T04:01:49Z",
  "pushed_at": "2017-01-26T05:13:20Z",
  "git_url": "git://github.com/opentracing/contrib.git",
  "ssh_url": "git@github.com:opentracing/contrib.git",
  "clone_url": "https://github.com/opentracing/contrib.git",
  "svn_url": "https://github.com/opentracing/contrib",
  "homepage": null,
  "size": 19,
  "stargazers_count": 2,
  "watchers_count": 2,
  "language": null,
  "has_issues": true,
  "has_projects": true,
  "has_downloads": true,
  "has_wiki": true,
  "has_pages": false,
  "forks_count": 2,
  "mirror_url": null,
  "open_issues_count": 0,
  "forks": 2,
  "open_issues": 0,
  "watchers": 2,
  "default_branch": "master",
  "permissions": {
    "admin": false,
    "push": false,
    "pull": true
  },
  "organization": {
    "login": "opentracing",
    "id": 15482765,
    "avatar_url": "https://avatars2.githubusercontent.com/u/15482765?v=3",
    "gravatar_id": "",
    "url": "https://api.github.com/users/opentracing",
    "html_url": "https://github.com/opentracing",
    "followers_url": "https://api.github.com/users/opentracing/followers",
    "following_url": "https://api.github.com/users/opentracing/following{/other_user}",
    "gists_url": "https://api.github.com/users/opentracing/gists{/gist_id}",
    "starred_url": "https://api.github.com/users/opentracing/starred{/owner}{/repo}",
    "subscriptions_url": "https://api.github.com/users/opentracing/subscriptions",
    "organizations_url": "https://api.github.com/users/opentracing/orgs",
    "repos_url": "https://api.github.com/users/opentracing/repos",
    "events_url": "https://api.github.com/users/opentracing/events{/privacy}",
    "received_events_url": "https://api.github.com/users/opentracing/received_events",
    "type": "Organization",
    "site_admin": false
  },
  "network_count": 2,
  "subscribers_count": 7
}
