{
  "id": 21337099,
  "name": "fluent-plugin-grok-parser",
  "full_name": "fluent/fluent-plugin-grok-parser",
  "owner": {
    "login": "fluent",
    "id": 859518,
    "avatar_url": "https://avatars3.githubusercontent.com/u/859518?v=3",
    "gravatar_id": "",
    "url": "https://api.github.com/users/fluent",
    "html_url": "https://github.com/fluent",
    "followers_url": "https://api.github.com/users/fluent/followers",
    "following_url": "https://api.github.com/users/fluent/following{/other_user}",
    "gists_url": "https://api.github.com/users/fluent/gists{/gist_id}",
    "starred_url": "https://api.github.com/users/fluent/starred{/owner}{/repo}",
    "subscriptions_url": "https://api.github.com/users/fluent/subscriptions",
    "organizations_url": "https://api.github.com/users/fluent/orgs",
    "repos_url": "https://api.github.com/users/fluent/repos",
    "events_url": "https://api.github.com/users/fluent/events{/privacy}",
    "received_events_url": "https://api.github.com/users/fluent/received_events",
    "type": "Organization",
    "site_admin": false
  },
  "private": false,
  "html_url": "https://github.com/fluent/fluent-plugin-grok-parser",
  "description": "Fluentd's Grok parser",
  "fork": false,
  "url": "https://api.github.com/repos/fluent/fluent-plugin-grok-parser",
  "forks_url": "https://api.github.com/repos/fluent/fluent-plugin-grok-parser/forks",
  "keys_url": "https://api.github.com/repos/fluent/fluent-plugin-grok-parser/keys{/key_id}",
  "collaborators_url": "https://api.github.com/repos/fluent/fluent-plugin-grok-parser/collaborators{/collaborator}",
  "teams_url": "https://api.github.com/repos/fluent/fluent-plugin-grok-parser/teams",
  "hooks_url": "https://api.github.com/repos/fluent/fluent-plugin-grok-parser/hooks",
  "issue_events_url": "https://api.github.com/repos/fluent/fluent-plugin-grok-parser/issues/events{/number}",
  "events_url": "https://api.github.com/repos/fluent/fluent-plugin-grok-parser/events",
  "assignees_url": "https://api.github.com/repos/fluent/fluent-plugin-grok-parser/assignees{/user}",
  "branches_url": "https://api.github.com/repos/fluent/fluent-plugin-grok-parser/branches{/branch}",
  "tags_url": "https://api.github.com/repos/fluent/fluent-plugin-grok-parser/tags",
  "blobs_url": "https://api.github.com/repos/fluent/fluent-plugin-grok-parser/git/blobs{/sha}",
  "git_tags_url": "https://api.github.com/repos/fluent/fluent-plugin-grok-parser/git/tags{/sha}",
  "git_refs_url": "https://api.github.com/repos/fluent/fluent-plugin-grok-parser/git/refs{/sha}",
  "trees_url": "https://api.github.com/repos/fluent/fluent-plugin-grok-parser/git/trees{/sha}",
  "statuses_url": "https://api.github.com/repos/fluent/fluent-plugin-grok-parser/statuses/{sha}",
  "languages_url": "https://api.github.com/repos/fluent/fluent-plugin-grok-parser/languages",
  "stargazers_url": "https://api.github.com/repos/fluent/fluent-plugin-grok-parser/stargazers",
  "contributors_url": "https://api.github.com/repos/fluent/fluent-plugin-grok-parser/contributors",
  "subscribers_url": "https://api.github.com/repos/fluent/fluent-plugin-grok-parser/subscribers",
  "subscription_url": "https://api.github.com/repos/fluent/fluent-plugin-grok-parser/subscription",
  "commits_url": "https://api.github.com/repos/fluent/fluent-plugin-grok-parser/commits{/sha}",
  "git_commits_url": "https://api.github.com/repos/fluent/fluent-plugin-grok-parser/git/commits{/sha}",
  "comments_url": "https://api.github.com/repos/fluent/fluent-plugin-grok-parser/comments{/number}",
  "issue_comment_url": "https://api.github.com/repos/fluent/fluent-plugin-grok-parser/issues/comments{/number}",
  "contents_url": "https://api.github.com/repos/fluent/fluent-plugin-grok-parser/contents/{+path}",
  "compare_url": "https://api.github.com/repos/fluent/fluent-plugin-grok-parser/compare/{base}...{head}",
  "merges_url": "https://api.github.com/repos/fluent/fluent-plugin-grok-parser/merges",
  "archive_url": "https://api.github.com/repos/fluent/fluent-plugin-grok-parser/{archive_format}{/ref}",
  "downloads_url": "https://api.github.com/repos/fluent/fluent-plugin-grok-parser/downloads",
  "issues_url": "https://api.github.com/repos/fluent/fluent-plugin-grok-parser/issues{/number}",
  "pulls_url": "https://api.github.com/repos/fluent/fluent-plugin-grok-parser/pulls{/number}",
  "milestones_url": "https://api.github.com/repos/fluent/fluent-plugin-grok-parser/milestones{/number}",
  "notifications_url": "https://api.github.com/repos/fluent/fluent-plugin-grok-parser/notifications{?since,all,participating}",
  "labels_url": "https://api.github.com/repos/fluent/fluent-plugin-grok-parser/labels{/name}",
  "releases_url": "https://api.github.com/repos/fluent/fluent-plugin-grok-parser/releases{/id}",
  "deployments_url": "https://api.github.com/repos/fluent/fluent-plugin-grok-parser/deployments",
  "created_at": "2014-06-30T02:14:25Z",
  "updated_at": "2017-04-26T03:57:15Z",
  "pushed_at": "2017-03-22T01:14:08Z",
  "git_url": "git://github.com/fluent/fluent-plugin-grok-parser.git",
  "ssh_url": "git@github.com:fluent/fluent-plugin-grok-parser.git",
  "clone_url": "https://github.com/fluent/fluent-plugin-grok-parser.git",
  "svn_url": "https://github.com/fluent/fluent-plugin-grok-parser",
  "homepage": null,
  "size": 101,
  "stargazers_count": 28,
  "watchers_count": 28,
  "language": "Ruby",
  "has_issues": true,
  "has_projects": true,
  "has_downloads": true,
  "has_wiki": true,
  "has_pages": false,
  "forks_count": 5,
  "mirror_url": null,
  "open_issues_count": 2,
  "forks": 5,
  "open_issues": 2,
  "watchers": 28,
  "default_branch": "master",
  "permissions": {
    "admin": false,
    "push": false,
    "pull": true
  },
  "organization": {
    "login": "fluent",
    "id": 859518,
    "avatar_url": "https://avatars3.githubusercontent.com/u/859518?v=3",
    "gravatar_id": "",
    "url": "https://api.github.com/users/fluent",
    "html_url": "https://github.com/fluent",
    "followers_url": "https://api.github.com/users/fluent/followers",
    "following_url": "https://api.github.com/users/fluent/following{/other_user}",
    "gists_url": "https://api.github.com/users/fluent/gists{/gist_id}",
    "starred_url": "https://api.github.com/users/fluent/starred{/owner}{/repo}",
    "subscriptions_url": "https://api.github.com/users/fluent/subscriptions",
    "organizations_url": "https://api.github.com/users/fluent/orgs",
    "repos_url": "https://api.github.com/users/fluent/repos",
    "events_url": "https://api.github.com/users/fluent/events{/privacy}",
    "received_events_url": "https://api.github.com/users/fluent/received_events",
    "type": "Organization",
    "site_admin": false
  },
  "network_count": 5,
  "subscribers_count": 3
}
