{
  "count": 4,
  "next": null,
  "previous": null,
  "results": [
    {
      "name": "master",
      "full_size": 4292597,
      "images": [
        {
          "size": 4292597,
          "architecture": "amd64",
          "variant": null,
          "features": null,
          "os": null,
          "os_version": null,
          "os_features": null
        }
      ],
      "id": 2886367,
      "repository": 668676,
      "creator": 763987,
      "last_updater": 763987,
      "last_updated": "2017-05-12T13:13:22.535487Z",
      "image_id": null,
      "v2": true
    },
    {
      "name": "v0.4.0",
      "full_size": 4292585,
      "images": [
        {
          "size": 4292585,
          "architecture": "amd64",
          "variant": null,
          "features": null,
          "os": null,
          "os_version": null,
          "os_features": null
        }
      ],
      "id": 10857845,
      "repository": 668676,
      "creator": 763987,
      "last_updater": 763987,
      "last_updated": "2017-05-12T13:05:45.269936Z",
      "image_id": null,
      "v2": true
    },
    {
      "name": "latest",
      "full_size": 4292585,
      "images": [
        {
          "size": 4292585,
          "architecture": "amd64",
          "variant": null,
          "features": null,
          "os": null,
          "os_version": null,
          "os_features": null
        }
      ],
      "id": 2911062,
      "repository": 668676,
      "creator": 244185,
      "last_updater": 763987,
      "last_updated": "2017-05-12T13:05:44.869155Z",
      "image_id": null,
      "v2": true
    },
    {
      "name": "0.3.0",
      "full_size": 4328122,
      "images": [
        {
          "size": 4328122,
          "architecture": "amd64",
          "variant": null,
          "features": null,
          "os": null,
          "os_version": null,
          "os_features": null
        }
      ],
      "id": 2914368,
      "repository": 668676,
      "creator": 763987,
      "last_updater": 763987,
      "last_updated": "2016-05-05T19:39:57.601171Z",
      "image_id": null,
      "v2": true
    }
  ]
}
